Name,WeightClassKg,Division,Sex,Event,Equipment,BodyweightKg,Best3SquatKg,Best3BenchKg,Best3DeadliftKg,TotalKg,Age,Place
Bob Herbst,75,Submasters,M,S,Raw,,140.61,,,140.61,,1
Nick Vlasic Jr,90,Open,M,S,Raw,,244.94,,,244.94,,1
Tom Smith,90,Masters,M,S,Raw,,158.76,,,158.76,,1
Nick Vlasic Jr,90,Submasters,M,S,Raw,,244.94,,,244.94,,1
Brantly Kelly,100,Submasters,M,S,Raw,,,,,,,DQ
Bobbie Bean,110,Open,M,S,Raw,,226.8,,,226.8,,1
Bobbie Bean,110,Submasters,M,S,Raw,,226.8,,,226.8,,1
Bill Curtis Mathis,125,Masters,M,S,Raw,,229.06,,,229.06,,1
John Jahn,145+,Open,M,S,Raw,,285.76,,,285.76,,1
Eric Drockman,60,Open,M,B,Raw,,,104.33,,104.33,,1
Eric Drockman,60,Open,M,B,Raw,,,104.33,,104.33,,2
Ed Landron,67.5,Open,M,B,Raw,,,129.27,,129.27,,1
G. Chappell,67.5,Open,M,B,Raw,,,13.61,,13.61,,2
C. Lee,67.5,Juniors,M,B,Raw,,,113.4,,113.4,,1
S. Ward,75,Open,M,B,Raw,,,163.29,,163.29,,1
D. Guerrieri,75,Open,M,B,Raw,,,161.03,,161.03,,2
S. Ward,75,Submasters,M,B,Raw,,,163.29,,163.29,,1
Bob Herbst,75,Submasters,M,B,Raw,,,138.35,,138.35,,2
K. Herubin,82.5,Open,M,B,Raw,,,156.49,,156.49,,1
R. Conard,82.5,Open,M,B,Raw,,,,,,,DQ
Ken Prior,82.5,Teen,M,B,Raw,,,172.37,,172.37,,1
R. Manama,82.5,Teen,M,B,Raw,,,136.08,,136.08,,2
Nick Vlasic Jr,90,Open,M,B,Raw,,,185.97,,185.97,,1
D. Sandier,90,Open,M,B,Raw,,,176.9,,176.9,,2
Tom Smith,90,Masters,M,B,Raw,,,117.93,,117.93,,1
Nick Vlassic,90,Submasters,M,B,Raw,,,185.97,,185.97,,1
Frank Schlofer,100,Open,M,B,Raw,,,183.71,,183.71,,1
Glenn Wilkens,100,Open,M,B,Raw,,,,,,,DQ
B. Joyner,100,Masters,M,B,Raw,,,115.67,,115.67,,1
Men Bench,100,Masters,M,B,Raw,,,109.77,,109.77,,2
D. O'Connell,110,Open,M,B,Raw,,,199.58,,199.58,,1
Bobbie Bean,110,Open,M,B,Raw,,,158.76,,158.76,,2
Bobbie Bean,110,Submasters,M,B,Raw,,,158.76,,158.76,,1
F. Flack,125,Masters,M,B,Raw,,,,,,,DQ
John Jahn,145+,Open,M,B,Raw,,,233.6,,233.6,,1
Jean Gardella,67.5,Open,F,B,Raw,,,83.91,,83.91,,1
Alex Martinez,67.5,Submasters,M,D,Raw,,,,210.92,210.92,,1
Bob Herbst,75,Open,M,D,Raw,,,,208.65,208.65,,1
Bob Herbst,75,Submasters,M,D,Raw,,,,208.65,208.65,,1
Ed Kutin,90,Open,M,D,Raw,,,,256.28,256.28,,1
Pat Beck,90,Open,M,D,Raw,,,,244.94,244.94,,2
Tom Smith,90,Masters,M,D,Raw,,,,226.8,226.8,,1
Ed Kutin,90,Submasters,M,D,Raw,,,,256.28,256.28,,1
Glenn Wilkens,100,Open,M,D,Raw,,,,,,,DQ
Ralph Roberts,100,Masters,M,D,Raw,,,,226.8,226.8,,1
Joe Vega #4,110,Open,M,D,Raw,,,,283.5,283.5,,1
Bobbie Bean,110,Open,M,D,Raw,,,,260.82,260.82,,2
Bobbie Bean,110,Submasters,M,D,Raw,,,,260.82,260.82,,1
Men Deadlift,110,Submasters,M,D,Raw,,,,124.74,124.74,,2
B. Mathis,110,Masters,M,D,Raw,,,,229.06,229.06,,1
John Jahn,145+,Open,M,D,Raw,,,,281.23,281.23,,1
Ken Snell,56,Open,M,SBD,Raw,,154.22,104.33,195.04,453.59,,1
Steve Soukup,56,Open,M,SBD,Raw,,138.35,97.52,138.35,374.21,,2
Hennis Washington,67.5,Open,M,SBD,Raw,,181.44,129.27,217.72,528.44,27,1
Ed Faford Jr,67.5,Open,M,SBD,Raw,,181.44,106.59,185.97,474,,2
G. Chappell,67.5,Open,M,SBD,Raw,,,,,,,DQ
Paul Griffith,67.5,Masters,M,SBD,Raw,,167.83,90.72,163.29,421.84,51,1
Chip Taylor,67.5,Submasters,M,SBD,Raw,66.34,167.83,138.35,181.44,487.61,,1
Alex Martinez,67.5,Submasters,M,SBD,Raw,66.56,149.69,127.01,210.92,487.61,,2
Steve Gardner #2,75,Open,M,SBD,Raw,,190.51,154.22,240.4,585.13,,1
Don Keller,75,Open,M,SBD,Raw,,208.65,120.2,235.87,564.72,,2
Scott Saltzman,75,Open,M,SBD,Raw,,195.04,156.49,208.65,560.19,,3
Bob Herbst,75,Open,M,SBD,Raw,,151.95,138.35,208.65,498.95,,4
Tony Conyers,75,Open,M,SBD,Raw,,226.8,183.71,272.16,682.66,,G
Steven Brown,75,Masters,M,SBD,Raw,,165.56,104.33,170.1,439.99,,2
Bob Herbst,75,Masters,M,SBD,Raw,,151.95,138.35,208.65,498.95,,1
Jimmy Jones,75,Masters,M,SBD,Raw,,115.67,83.91,174.63,374.21,,3
Doug Chin,82.5,Open,M,SBD,Raw,,231.33,149.69,263.08,644.1,,1
Rich Butera,82.5,Open,M,SBD,Raw,,217.72,145.15,238.14,601.01,,2
Ray Roberts,82.5,Open,M,SBD,Raw,,190.51,138.35,249.48,578.33,37,3
Ken Prior,82.5,Open,M,SBD,Raw,,188.24,172.37,213.19,573.8,,4
Richardson,82.5,Open,M,SBD,Raw,,,,,,,DQ
Dennis Schuman,82.5,Masters,M,SBD,Raw,,208.65,145.15,231.33,585.13,,1
Ray Roberts,82.5,Submasters,M,SBD,Raw,,190.51,138.35,249.48,578.33,,1
Virgil Diaz,82.5,Submasters,M,SBD,Raw,,210.92,111.13,229.06,551.12,36,2
Ken Prior,82.5,Teen,M,SBD,Raw,,188.24,172.37,213.19,573.8,,1
John Morell,90,Open,M,SBD,Raw,,260.82,170.1,254.01,684.93,,1
Nick Vlasic Jr,90,Open,M,SBD,Raw,,244.94,185.97,244.94,675.85,,2
Mario Bowers,90,Open,M,SBD,Raw,88.9,226.8,165.56,274.42,666.78,,3
Jeff Diegen,90,Open,M,SBD,Raw,88.9,244.94,161.03,256.28,662.25,,4
Dan van Lenten,90,Open,M,SBD,Raw,,224.53,176.9,249.48,650.91,,5
Ed Kutin,90,Open,M,SBD,Raw,,192.78,158.76,256.28,607.81,,6
D. Lewandowski,90,Open,M,SBD,Raw,,219.99,117.93,244.94,582.87,,7
Pat Beck,90,Open,M,SBD,Raw,,158.76,113.4,244.94,517.1,,8
Tom Smith,90,Masters,M,SBD,Raw,,158.76,113.4,240.4,512.56,,1
John Morell,90,Submasters,M,SBD,Raw,,260.82,170.1,254.01,684.93,,1
Nick Vlasic Jr,90,Submasters,M,SBD,Raw,,244.94,185.97,244.94,675.85,,2
Ed Kutin,90,Submasters,M,SBD,Raw,,192.78,158.76,256.28,607.81,,3
Dan Mahan,100,Open,M,SBD,Raw,,272.16,165.56,283.5,721.21,,2
Al Bianchi,100,Open,M,SBD,Raw,,251.74,185.97,288.03,725.75,,1
Joe Bianchi,100,Open,M,SBD,Raw,,240.4,210.92,251.74,703.07,,3
Tim Covert,100,Open,M,SBD,Raw,,231.33,172.37,256.28,659.98,,4
Frank Schlofer,100,Open,M,SBD,Raw,,208.65,183.71,226.8,619.15,,5
Fred Peterson,100,Masters,M,SBD,Raw,,199.58,149.69,272.16,621.42,59,1
Bill Remley,100,Masters,M,SBD,Raw,,188.24,145.15,238.14,571.53,66,2
Tom King,100,Masters,M,SBD,Raw,,217.72,117.93,219.99,555.65,48,3
Bill Beekley,100,Submasters,M,SBD,Raw,,233.6,154.22,285.76,673.59,,1
Brantly Kelly,100,Submasters,M,SBD,Raw,,240.4,138.35,244.94,623.69,,3
Kevin Jordan,100,Submasters,M,SBD,Raw,,235.87,156.49,235.87,628.23,,2
Rich Dixon,100,Submasters,M,SBD,Raw,,208.65,136.08,226.8,571.53,,4
Darren Robinson,110,Open,M,SBD,Raw,,276.69,179.17,306.18,762.04,,1
Joe Vega #4,110,Open,M,SBD,Raw,,249.48,174.63,283.5,707.6,,2
Tom Tinsman,110,Open,M,SBD,Raw,,226.8,183.71,269.89,680.39,,3
Bobbie Bean,110,Open,M,SBD,Raw,,226.8,158.76,260.82,646.37,,4
Pete Bouchard,110,Open,M,SBD,Raw,,215.46,149.69,260.82,625.96,,5
Bob Dyer,110,Open,M,SBD,Raw,,274.42,190.51,265.35,730.28,43,G
Tom Tinsman,110,Masters,M,SBD,Raw,,226.8,183.71,269.89,680.39,,1
Pete Bouchard,110,Masters,M,SBD,Raw,,215.46,149.69,260.82,625.96,,2
Bobbie Bean,110,Submasters,M,SBD,Raw,,226.8,158.76,260.82,646.37,,1
Ken Howard,125,Open,M,SBD,Raw,112.72,303.91,170.1,335.66,809.66,,1
Ray Ebner Jr,125,Open,M,SBD,Raw,,306.18,197.31,283.5,786.98,,2
Pete Aaron,125,Open,M,SBD,Raw,,292.57,185.97,276.69,755.23,,3
Steve Saddler,125,Open,M,SBD,Raw,,260.82,154.22,244.94,659.98,,4
Bill Curtis Mathis,125,Open,M,SBD,Raw,,278.96,136.08,229.06,644.1,,6
Matt Garman,125,Open,M,SBD,Raw,,238.14,158.76,254.01,650.91,,5
Bill Curtis Mathis,125,Masters,M,SBD,Raw,,278.96,136.08,229.06,644.1,45,1
Reggie Blankenship,125,Masters,M,SBD,Raw,,210.92,158.76,229.06,598.74,,2
Dave Kraft,125,Submasters,M,SBD,Raw,111.58,247.21,183.71,294.84,725.75,,1
Lance Seymore,145,Open,M,SBD,Raw,,235.87,181.44,283.5,700.8,,1
Walt Gogola Jr,145,Open,M,SBD,Raw,,242.67,179.17,272.16,694,,2
Greg Wiggands,145,Open,M,SBD,Raw,,249.48,172.37,249.48,671.32,,3
JoJo White,145,Masters,M,SBD,Raw,,272.16,183.71,276.69,732.55,50,1
John Jahn,145+,Open,M,SBD,Raw,,285.76,233.6,281.23,800.59,,1
Karl Nyholm,145+,Open,M,SBD,Raw,,308.44,190.51,276.69,775.64,,2
Bill Earnhardt Jr,145+,Open,M,SBD,Raw,,283.5,172.37,276.69,732.55,,4
John James,145+,Open,M,SBD,Raw,,249.48,158.76,303.91,712.14,,5
Matt Seymour,145+,Open,M,SBD,Raw,,272.16,190.51,276.69,739.36,,3
Pete Nicholas,145+,Juniors,M,SBD,Raw,,231.33,163.29,231.33,625.96,,1
Kart Nyholm,145+,Masters,M,SBD,Raw,,308.44,190.51,276.69,775.64,,1
Bill Earnhardt Jr,145+,Submasters,M,SBD,Raw,,283.5,172.37,276.69,732.55,,1
B. Richardson,52,Open,F,SBD,Raw,,,,,,,DQ
Melody Jordon,67.5,Open,F,SBD,Raw,,104.33,83.91,136.08,324.32,,1
Jean Gardella,67.5,Open,F,SBD,Raw,,95.25,83.91,129.27,308.44,,2
Abbie Bennewitz,75,Open,F,SBD,Raw,,120.2,79.38,147.42,347,,1
Paulette Marrama,82.5,Open,F,SBD,Raw,,127.01,77.11,151.95,356.07,43,1
Paulette Marrama,82.5,Masters,F,SBD,Raw,,127.01,77.11,151.95,356.07,43,1
Kari Sabin,90,Open,F,SBD,Raw,,136.08,95.25,170.1,401.43,32,1
