Division,WeightClassKg,Place,Name,Team,BodyweightKg,Best3SquatKg,Best3BenchKg,Best3DeadliftKg,TotalKg,Equipment,Event,Sex
Boys,51.71,1,Cesar Ledesma,Burleson,51.44,176.9,92.99,176.9,446.79,Single-ply,SBD,M
Boys,51.71,2,Danny Carrillo,Waxahachie,51.71,136.08,74.84,147.42,358.34,Single-ply,SBD,M
Boys,51.71,3,Justin Moss,Burleson,50.53,131.54,72.57,133.81,337.93,Single-ply,SBD,M
Boys,51.71,4,Trevon Atchison,Fort Worth Polytechnic,50.98,124.74,65.77,117.93,308.44,Single-ply,SBD,M
Boys,51.71,5,Matthew Smith,Burleson,50.98,124.74,58.97,115.67,299.37,Single-ply,SBD,M
Boys,51.71,6,Jason Botkin,Corsicana,49.53,108.86,56.7,131.54,297.1,Single-ply,SBD,M
Boys,51.71,7,Ethan Peace,Waxahachie,51.44,104.33,43.09,108.86,256.28,Single-ply,SBD,M
Boys,51.71,8,Cody Vance,Midlothian,43.36,88.45,52.16,92.99,233.6,Single-ply,SBD,M
Boys,51.71,DQ,Dylan Quintero,Burleson Centennial,50.35,,,,,Single-ply,SBD,M
Boys,55.79,1,Eduardo Renteria,Burleson,55.79,131.54,70.31,172.37,374.21,Single-ply,SBD,M
Boys,55.79,2,Michael Harris,Waxahachie,52.53,88.45,58.97,108.86,256.28,Single-ply,SBD,M
Boys,59.87,1,Dax Lott,Waxahachie,58.79,170.1,104.33,142.88,417.3,Single-ply,SBD,M
Boys,59.87,2,Genbard Lumino,Midlothian,56.43,136.08,68.04,149.69,353.8,Single-ply,SBD,M
Boys,59.87,3,Jacob Moss,Burleson,59.87,190.51,,,190.51,Single-ply,S,M
Boys,59.87,DQ,Wyatt Johnson,Rio Vista,58.15,,,,,Single-ply,S,M
Boys,67.13,1,Iver MaCaulay,Burleson,66.68,213.19,120.2,213.19,546.58,Single-ply,SBD,M
Boys,67.13,2,Deondre Brown,Corsicana,67.13,208.65,113.4,204.12,526.17,Single-ply,SBD,M
Boys,67.13,3,Jaden Basham,Waxahachie,65.86,172.37,104.33,181.44,458.13,Single-ply,SBD,M
Boys,67.13,4,Hayden Braswell,Corsicana,67.13,147.42,95.25,199.58,442.25,Single-ply,SBD,M
Boys,67.13,5,Riley Angel,Midlothian,64.14,154.22,92.99,199.58,446.79,Single-ply,SBD,M
Boys,67.13,6,Wyatt Thomas,Midlothian Heritage,65.23,142.88,102.06,156.49,401.43,Single-ply,SBD,M
Boys,67.13,7,Gabe Leal,Venus,62.23,138.35,111.13,149.69,399.16,Single-ply,SBD,M
Boys,67.13,8,Erick Torres,Venus,65.32,154.22,79.38,127.01,360.61,Single-ply,SBD,M
Boys,67.13,9,Joaquin Zamora,Venus,63.59,113.4,58.97,133.81,306.17,Single-ply,SBD,M
Boys,74.84,1,Ethan Haynes,Burleson,71.67,256.28,142.88,242.67,641.83,Single-ply,SBD,M
Boys,74.84,2,D'Tyler Mason,Waxahachie,70.94,188.24,108.86,188.24,485.34,Single-ply,SBD,M
Boys,74.84,3,Quincy Johnson,Waxahachie,74.3,163.29,120.2,195.04,478.54,Single-ply,SBD,M
Boys,74.84,4,Matiyron Easley,Burleson Centennial,71.12,165.56,95.25,197.31,458.13,Single-ply,SBD,M
Boys,74.84,5,Jayson McCall,Midlothian,74.03,158.76,104.33,192.78,455.86,Single-ply,SBD,M
Boys,74.84,6,Kadyn Putty,Venus,73.12,142.88,83.91,188.24,415.04,Single-ply,SBD,M
Boys,74.84,7,Isaac Houston,Midlothian,73.66,147.42,104.33,161.03,412.77,Single-ply,SBD,M
Boys,74.84,8,John Hoffman,Venus,68.31,120.2,86.18,136.08,342.46,Single-ply,SBD,M
Boys,74.84,9,Riker Tucker,Burleson Centennial,70.22,95.25,65.77,145.15,306.17,Single-ply,SBD,M
Boys,74.84,10,Kody Arsenault,Rio Vista,71.12,158.76,,,158.76,Single-ply,S,M
Boys,74.84,DQ,Ababio Zion,Burleson Centennial,73.66,,,,,Single-ply,S,M
Boys,82.1,1,Wesley Free,Cleburne,79.2,238.14,142.88,185.97,566.99,Single-ply,SBD,M
Boys,82.1,2,Braxton Bailey,Cleburne,81.65,226.8,129.27,208.65,564.72,Single-ply,SBD,M
Boys,82.1,3,John Mueller,Burleson,80.74,201.85,117.93,222.26,542.04,Single-ply,SBD,M
Boys,82.1,4,Jonathen Guerrero,Waxahachie,80.38,195.04,127.01,192.78,514.83,Single-ply,SBD,M
Boys,82.1,5,Jeremiah Lizzaraga,Waxahachie,77.66,185.97,108.86,174.63,469.47,Single-ply,SBD,M
Boys,82.1,6,Ethan Lemley,Midlothian,79.83,154.22,106.59,181.44,442.25,Single-ply,SBD,M
Boys,82.1,7,Ryan Walz,Burleson Centennial,80.1,136.08,90.72,151.95,378.75,Single-ply,SBD,M
Boys,82.1,8,Enrique Garcia,Venus,78.83,131.54,81.65,163.29,376.48,Single-ply,SBD,M
Boys,82.1,9,Parker Hancock,Burleson Centennial,80.29,111.13,72.57,136.08,319.78,Single-ply,SBD,M
Boys,82.1,10,Ayden Warren,Venus,80.74,97.52,49.9,108.86,256.28,Single-ply,SBD,M
Boys,89.81,1,Hunter Cunningham,Burleson,87.45,249.48,147.42,244.94,641.83,Single-ply,SBD,M
Boys,89.81,2,Joey Rainbolt,Joshua,89.36,233.6,138.35,254.01,625.96,Single-ply,SBD,M
Boys,89.81,3,Kenny Long,Burleson Centennial,88.99,249.48,127.01,215.46,591.94,Single-ply,SBD,M
Boys,89.81,4,Michael Mebane,Joshua,87.63,217.72,122.47,204.12,544.31,Single-ply,SBD,M
Boys,89.81,5,Elias Cruz,Midlothian,89.45,204.12,97.52,204.12,505.76,Single-ply,SBD,M
Boys,89.81,6,Will Mitchell,Burleson Centennial,87.72,185.97,111.13,195.04,492.15,Single-ply,SBD,M
Boys,89.81,7,Tyler Schott,Venus,86.82,192.78,72.57,213.19,478.54,Single-ply,SBD,M
Boys,89.81,8,Gino Lara,Venus,83.55,181.44,99.79,183.7,464.93,Single-ply,SBD,M
Boys,89.81,9,Ben Eskins,Midlothian Heritage,89.27,170.1,99.79,167.83,437.72,Single-ply,SBD,M
Boys,89.81,10,Chance Harrah,Rio Vista,89.54,158.76,83.91,167.83,410.5,Single-ply,SBD,M
Boys,99.79,1,Michael Kornak,Burleson Centennial,96.98,260.82,136.08,263.08,659.98,Single-ply,SBD,M
Boys,99.79,2,Adam Woods,Fort Worth Polytechnic,99.61,249.48,142.88,249.48,641.83,Single-ply,SBD,M
Boys,99.79,3,Justis Chaney,Joshua,97.43,231.33,154.22,235.87,621.42,Single-ply,SBD,M
Boys,99.79,4,Harry Waltis,Corsicana,94.62,226.8,124.74,242.67,594.21,Single-ply,SBD,M
Boys,99.79,5,Caleb Banks,Burleson,98.16,242.67,120.2,229.06,591.94,Single-ply,SBD,M
Boys,99.79,6,Jt Cavender,Midlothian,95.35,215.46,129.27,231.33,576.06,Single-ply,SBD,M
Boys,99.79,7,Chris Hillard,Burleson Centennial,97.61,217.72,131.54,215.46,564.72,Single-ply,SBD,M
Boys,99.79,8,Ryan Patino,Burleson,99.43,215.46,127.01,192.78,535.24,Single-ply,SBD,M
Boys,109.77,1,Blake Edgington,Joshua,108.95,272.16,183.7,276.69,732.55,Single-ply,SBD,M
Boys,109.77,2,Tyler Massingill,Burleson,107.41,272.16,147.42,256.28,675.85,Single-ply,SBD,M
Boys,109.77,3,Klaus Schoenborn,Burleson,107.32,244.94,127.01,219.99,591.94,Single-ply,SBD,M
Boys,109.77,4,Colton Smith,Cleburne,109.68,215.46,129.27,213.19,557.92,Single-ply,SBD,M
Boys,109.77,5,Chandler Poggensee,Burleson,109.32,204.12,140.61,206.38,551.11,Single-ply,SBD,M
Boys,109.77,6,Jacob Kennedy,Bonham,100.61,210.92,95.25,197.31,503.49,Single-ply,SBD,M
Boys,109.77,7,Brent Batch,Rio Vista,100.43,181.44,113.4,195.04,489.88,Single-ply,SBD,M
Boys,109.77,8,Gabe Tatum,Burleson Centennial,103.33,170.1,111.13,197.31,478.54,Single-ply,SBD,M
Boys,109.77,9,Jaime Gonzalez,Venus,103.15,142.88,88.45,149.69,381.02,Single-ply,SBD,M
Boys,109.77,10,Carlos Ruiz,Venus,101.42,142.88,61.23,138.35,342.46,Single-ply,SBD,M
Boys,109.77,11,Joseph Chavez,Waxahachie,105.69,244.94,,,244.94,Single-ply,S,M
Boys,124.74,1,Terrence Patterson,Burleson,121.83,244.94,167.83,263.08,675.85,Single-ply,SBD,M
Boys,124.74,2,Tyler Meksavanh,Burleson Centennial,124.1,233.6,147.42,229.06,610.08,Single-ply,SBD,M
Boys,124.74,3,Darryn Kindles,Burleson Centennial,114.03,231.33,136.08,201.85,569.26,Single-ply,SBD,M
Boys,124.74,4,Daniel Davis,Burleson Centennial,122.38,208.65,131.54,226.8,566.99,Single-ply,SBD,M
Boys,124.74,5,Griffith Peatrowsky,Burleson Centennial,122.38,181.44,106.59,188.24,476.27,Single-ply,SBD,M
Boys,124.74,6,Jake Godfrey,Midlothian Heritage,111.95,161.03,117.93,176.9,455.86,Single-ply,SBD,M
Boys,124.74,7,Kenny Castro,Corsicana,120.02,213.19,140.61,,353.8,Single-ply,SB,M
Boys,124.74,8,Harlen Perkins,Burleson,111.86,208.65,104.33,,312.98,Single-ply,SB,M
Boys,124.74,9,Denton Ross,Waxahachie,121.11,238.14,,,238.14,Single-ply,S,M
Boys,124.74,10,Jared Negrets,Burleson,118.48,233.6,,,233.6,Single-ply,S,M
Boys,124.74,11,Aaron Siddall,Burleson Centennial,119.84,140.61,74.84,,215.46,Single-ply,SB,M
Boys,124.74+,1,Duane Johnson,Midlothian,134.08,249.48,181.44,249.48,680.39,Single-ply,SBD,M
Boys,124.74+,2,Brayshun Parish,Corsicana,130.09,272.16,136.08,226.8,635.03,Single-ply,SBD,M
Boys,124.74+,3,Evan Baltazer,Burleson,131.63,242.67,113.4,244.94,601.01,Single-ply,SBD,M
Boys,124.74+,4,Ethan Cummins,Rio Vista,129.73,240.4,151.95,204.12,596.47,Single-ply,SBD,M
Boys,124.74+,5,Josh Rangel,Cleburne,127.46,251.74,129.27,213.19,594.21,Single-ply,SBD,M
Boys,124.74+,6,Hesjar Martinez,Midlothian,130.73,206.38,158.76,,365.14,Single-ply,SB,M
Boys,124.74+,DQ,Thomas Ray,Midlothian,159.3,,,,,Single-ply,SB,M
