Place,Sex,Name,CyrillicName,BodyweightKg,Squat1Kg,Squat2Kg,Squat3Kg,Best3SquatKg,Squat4Kg,Bench1Kg,Bench2Kg,Bench3Kg,Best3BenchKg,Bench4Kg,Deadlift1Kg,Deadlift2Kg,Deadlift3Kg,Best3DeadliftKg,Deadlift4Kg,TotalKg,WeightClassKg,Event,Equipment,Tested,Division,Age,BirthDate
1,M,Vladislav Adamenko,Владислав Адаменко,105.5,210,-220,220,220,,130,135,-140,135,,220,232.5,240,240,,595,110,SBD,Wraps,Yes,Amateur Juniors 20-23,22,1996-01-01
DQ,M,Magomed Khurshilov,Магомед Хуршилов,112,180,190,205,205,,-140,-140,-140,,,,,,,,,125,SBD,Wraps,Yes,Amateur Open,38,1980-02-14
DQ,F,Aleksandra Kharchenko,Александра Харченко,51,-110,-110,-110,,,,,,,,,,,,,,52,SBD,Wraps,Yes,Amateur Open,32,1986-06-10
1,F,Yuliya Ageeva,Юлия Агеева,55.6,-110,-115,120,120,,55,-57.5,57.5,57.5,,-110,110,112.5,112.5,,290,56,SBD,Wraps,Yes,Amateur Open,32,1986-01-13
1,M,Artem Panin,Артем Панин,97.7,150,160,170,170,,120,125,130,130,,190,200,-202.5,200,,500,100,SBD,Wraps,Yes,Amateur Open,32,1986-05-18
1,M,Aleksandr Vasilev,Александр Васильев,59.5,140,-145,-145,140,,100,105,110,110,,180,-200,-200,180,,430,60,SBD,Wraps,No,Pro Open,26,1991-12-25
1,M,Dmitriy Tsybenko,Дмитрий Цыбенко,81.1,-250,260,270,270,,140,150,160,160,,250,260,270,270,,700,82.5,SBD,Wraps,No,Pro Open,25,1992-11-04
1,M,Aleksey Koval,Алексей Коваль,89.6,210,-212.5,-212.5,210,,-140,140,145,145,,-250,250,-260,250,,605,90,SBD,Wraps,No,Pro Open,27,1991-08-24
1,M,Sergey Mikolaenko,Сергей Миколаенко,103.2,230,250,270,270,,140,150,160,160,,230,250,-270,250,,680,110,SBD,Wraps,No,Pro Open,33,1985-03-19
1,M,Mark Donchenko,Марк Донченко,136,200,215,235,235,,150,160,170,170,,220,250,-270,250,,655,140,SBD,Wraps,No,Pro Open,30,1988-05-27
1,F,Lyudmila Khromenkova,Людмила Хроменкова,54.6,,,,,,55,-60,60,60,,,,,,,60,56,B,Raw,Yes,Amateur Open,57,1961-09-20
1,F,Kristina Kharchenko,Кристина Харченко,59,,,,,,-60,62.5,-67.5,62.5,,,,,,,62.5,60,B,Raw,Yes,Amateur Juniors 20-23,23,1995-06-05
1,F,Yuliya Cherkesova,Юлия Черкесова,57.5,,,,,,55,57.5,62.5,62.5,,,,,,,62.5,60,B,Raw,Yes,Amateur Open,24,1994-01-10
2,F,Elizaveta Cherevatenko,Елизавета Череватенко,58.8,,,,,,57.5,-60,60,60,,,,,,,60,60,B,Raw,Yes,Amateur Open,24,1994-04-29
1,F,Marina Bazykina,Марина Базыкина,58.1,,,,,,35,40,-45,40,,,,,,,40,60,B,Raw,Yes,Amateur Masters 50-54,50,1968-03-31
1,M,Sergey Grigoryan,Сергей Григорян,71.8,,,,,,-135,-140,140,140,,,,,,,140,75,B,Raw,Yes,Amateur Open,25,1993-02-13
1,M,Sergey Zubko,Сергей Зубко,77.2,,,,,,142.5,145,155,155,,,,,,,155,82.5,B,Raw,Yes,Amateur Juniors 20-23,23,1994-12-10
1,M,Kantemir Mussaev,Кантемир Муссаев,82.5,,,,,,120,125,132.5,132.5,,,,,,,132.5,82.5,B,Raw,Yes,Amateur Open,37,1981-05-21
1,M,Aleksandr Slepchenko,Александр Слепченко,86.9,,,,,,155,160,170,170,,,,,,,170,90,B,Raw,Yes,Amateur Open,24,1994-05-21
2,M,Evgeniy Shavkunov,Евгений Шавкунов,87.3,,,,,,155,165,170,170,,,,,,,170,90,B,Raw,Yes,Amateur Open,33,1984-11-17
3,M,Vladimir Plotnikov,Владимир Плотников,90,,,,,,140,147.5,-152.5,147.5,,,,,,,147.5,90,B,Raw,Yes,Amateur Open,31,1986-10-25
4,M,Viktor Naymik,Виктор Наймик,86,,,,,,140,-152.5,-152.5,140,,,,,,,140,90,B,Raw,Yes,Amateur Open,35,1982-11-14
DQ,M,Levon Arustamyan,Левон Арустамян,86,,,,,,-132.5,-132.5,-132.5,,,,,,,,,90,B,Raw,Yes,Amateur Masters 40-44,,1973-11-09
1,M,Vladislav Suprunenko,Владислав Супруненко,97.7,,,,,,182.5,-190,195,195,,,,,,,195,100,B,Raw,Yes,Amateur Open,29,1989-02-15
2,M,Andrey Panov,Андрей Панов,97.3,,,,,,160,165,170,170,,,,,,,170,100,B,Raw,Yes,Amateur Open,30,1988-09-17
3,M,Sergey Cherkasskiy,Сергей Черкасский,98,,,,,,130,140,-150,140,,,,,,,140,100,B,Raw,Yes,Amateur Open,44,1973-11-25
1,M,Asker Guchapshev,Аскер Гучапшев,106,,,,,,145,155,167.5,167.5,,,,,,,167.5,110,B,Raw,Yes,Amateur Open,31,1986-11-12
1,M,Magomed Khurshilov,Магомед Хуршилов,112,,,,,,120,130,-140,130,,,,,,,130,125,B,Raw,Yes,Amateur Open,38,1980-02-14
DQ,M,Gennadiy Linnik,Геннадий Линник,73.5,,,,,,-147.5,-147.5,-147.5,,,,,,,,,75,B,Raw,No,Pro Open,30,1988-04-11
1,M,Arkadiy Osaulenko,Аркадий Осауленко,81.2,,,,,,150,157.5,165,165,,,,,,,165,82.5,B,Raw,No,Pro Open,31,1987-04-30
1,M,Roman Kabirov,Роман Кабиров,88.5,,,,,,160,-165,165,165,,,,,,,165,90,B,Raw,No,Pro Open,31,1987-07-25
1,M,Sergey Greshnov,Сергей Грешнов,89.6,,,,,,155,-165,-165,155,,,,,,,155,90,B,Raw,No,Pro Masters 45-49,45,1972-10-07
1,M,Oleg Bykov,Олег Быков,95.8,,,,,,-140,145,155,155,,,,,,,155,100,B,Raw,No,Pro Open,31,1986-10-10
DQ,M,Konstantin Bekh,Константин Бех,98.7,,,,,,-160,-160,-160,,,,,,,,,100,B,Raw,No,Pro Open,35,1982-10-16
1,M,Aleksey Usachev,Алексей Усачев,104,,,,,,210,220,225,225,,,,,,,225,110,B,Raw,No,Pro Open,29,1989-08-03
2,M,Andrey Chernenko,Андрей Черненко,109.7,,,,,,215,220,,220,,,,,,,220,110,B,Raw,No,Pro Open,25,1993-04-12
3,M,Egor Uporov,Егор Упоров,107,,,,,,185,192.5,-197.5,192.5,,,,,,,192.5,110,B,Raw,No,Pro Open,30,1988-03-01
4,M,Bogdan Zikin,Богдан Зикин,105.4,,,,,,185,-192.5,-192.5,185,,,,,,,185,110,B,Raw,No,Pro Open,37,1981-02-13
5,M,Andrey Demanov,Андрей Деманов,109.7,,,,,,160,170,175,175,,,,,,,175,110,B,Raw,No,Pro Open,33,1985-07-15
1,M,Dmitriy Kovalev,Дмитрий Ковалев,115,,,,,,180,185,-190,185,,,,,,,185,125,B,Raw,No,Pro Juniors 20-23,22,1995-11-15
1,M,Vadim Almukhamedov,Вадим Альмухамедов,112.5,,,,,,180,187.5,192.5,192.5,,,,,,,192.5,125,B,Raw,No,Pro Open,32,1986-02-16
1,F,Aleksandra Kharchenko,Александра Харченко,51,,,,,,,,,,,100,-110,-110,100,,100,52,D,Raw,Yes,Amateur Open,32,1986-06-10
1,F,Lyudmila Khromenkova,Людмила Хроменкова,54.6,,,,,,,,,,,130,140,-145,140,,140,56,D,Raw,Yes,Amateur Open,57,1961-09-20
2,F,Svetlana Aleksandrova,Светлана Александрова,54.4,,,,,,,,,,,115,125,-132.5,125,,125,56,D,Raw,Yes,Amateur Open,37,1981-01-16
3,F,Tatyana Sennik,Татьяна Сенник,55.4,,,,,,,,,,,100,110,115,115,,115,56,D,Raw,Yes,Amateur Open,33,1985-08-07
1,M,Eduard Sulimov,Эдуард Сулимов,80,,,,,,,,,,,135,147.5,-155,147.5,,147.5,82.5,D,Raw,Yes,Amateur Sub-Juniors 17-19,19,1999-05-29
1,M,Sergey Semenov,Сергей Семенов,80.8,,,,,,,,,,,210,-220,,210,,210,82.5,D,Raw,Yes,Amateur Open,26,1992-06-22
1,M,Viktor Derevyankin,Виктор Деревянкин,96.3,,,,,,,,,,,240,250,-260,250,,250,100,D,Raw,Yes,Amateur Juniors 20-23,23,1995-02-15
2,M,Ruslan Dezhin,Руслан Дежин,95,,,,,,,,,,,180,200,210,210,,210,100,D,Raw,Yes,Amateur Juniors 20-23,20,1998-04-23
1,M,Dmitriy Belokon,Дмитрий Белоконь,98,,,,,,,,,,,250,260,270,270,,270,100,D,Raw,Yes,Amateur Open,25,1992-12-22
1,M,Magomed Khurshilov,Магомед Хуршилов,112,,,,,,,,,,,240,250,-260,250,,250,125,D,Raw,Yes,Amateur Open,38,1980-02-14
1,M,Mariya Aleksandrova,Мария Александрова,66,,,,,,,,,,,150,-160,160,160,,160,67.5,D,Raw,No,Pro Open,37,1981-06-14
1,M,Dmitriy Pavlov,Дмитрий Павлов,74,,,,,,,,,,,-250,-250,250,250,,250,75,D,Raw,No,Pro Open,24,1993-10-24
1,M,Aleksey Khromenkov,Алексей Хроменков,98.4,,,,,,,,,,,175,190,205,205,,205,100,D,Raw,No,Pro Masters 60-64,60,1957-10-02
1,M,Vadim Almukhamedov,Вадим Альмухамедов,112.5,,,,,,,,,,,-240,240,-245,240,,240,125,D,Raw,No,Pro Open,32,1986-02-06
