Division,WeightClassKg,Place,Name,Team,BodyweightKg,Best3SquatKg,Best3BenchKg,Best3DeadliftKg,TotalKg,Equipment,Event,Sex
Boys,55.79,1,Tylor Chandler,Scurry-Rosser,54.07,120.2,63.5,142.88,326.59,Single-ply,SBD,M
Boys,55.79,2,Isaiah Payne,Crandall,54.98,108.86,58.97,149.69,317.51,Single-ply,SBD,M
Boys,59.87,1,Ezra Zepeda,Red Oak Life,59.15,154.22,83.91,183.7,421.84,Single-ply,SBD,M
Boys,67.13,2,Tyler Watson,Crandall,59.96,138.35,88.45,163.29,390.09,Single-ply,SBD,M
Boys,59.87,3,DeAndre Jones,Dallas Life Oak Cliff,59.06,129.27,92.99,138.35,360.61,Single-ply,SBD,M
Boys,59.87,3,DeAndre Jones,Dallas Life Oak Cliff,59.06,129.27,92.99,138.35,360.61,Single-ply,SBD,M
Boys,67.13,4,Jt Jones,Teague,60.06,131.54,74.84,149.69,356.07,Single-ply,SBD,M
Boys,59.87,5,Zach Neves,Teague,59.51,77.11,49.9,102.06,229.06,Single-ply,SBD,M
Boys,67.13,1,Jared Arey,Teague,65.32,192.78,102.06,195.04,489.88,Single-ply,SBD,M
Boys,74.84,2,Trevor Morgan,Red Oak Life,67.31,154.22,92.99,165.56,412.77,Single-ply,SBD,M
Boys,67.13,3,Jacob McLean,Scurry-Rosser,60.87,149.69,74.84,154.22,378.75,Single-ply,SBD,M
Boys,67.13,4,Daniel Camarillo,Blooming Grove,66.13,122.47,97.52,158.76,378.75,Single-ply,SBD,M
Boys,67.13,5,Tristan Jordan,Corsicana Mildred,61.96,131.54,81.65,129.27,342.46,Single-ply,SBD,M
Boys,67.13,6,Jonathan Erickson,Corsicana Mildred,62.51,129.27,74.84,136.08,340.19,Single-ply,SBD,M
Boys,67.13,7,Emmanuel Reese II,Dallas Life Oak Cliff,61.69,122.47,65.77,129.27,317.51,Single-ply,SBD,M
Boys,67.13,7,Emmanuel Reese II,Dallas Life Oak Cliff,61.69,122.47,65.77,129.27,317.51,Single-ply,SBD,M
Boys,74.84,8,Stone Bankston,Scurry-Rosser,67.31,115.67,65.77,124.74,306.17,Single-ply,SBD,M
Boys,67.13,9,Brian Griffin,Scurry-Rosser,62.51,104.33,49.9,106.59,260.82,Single-ply,SBD,M
Boys,67.13,DQ,Nicholas Matthews,Dallas Life Oak Cliff,64.86,136.08,,,,Single-ply,SBD,M
Boys,67.13,DQ,Maverick Jewell,Teague,61.33,136.08,,,,Single-ply,SBD,M
Boys,67.13,DQ,Nicholas Matthews,Dallas Life Oak Cliff,64.86,136.08,,,,Single-ply,SBD,M
Boys,67.13,DQ,Nick Snodgrass,Blooming Grove,63.87,,,,,Single-ply,SBD,M
Boys,74.84,1,Coy Jorden,Teague,73.39,238.14,145.15,240.4,623.69,Single-ply,SBD,M
Boys,74.84,2,Kaine Blake,Red Oak Life,73.84,185.97,97.52,183.7,467.2,Single-ply,SBD,M
Boys,74.84,3,Adrian Cooper,Red Oak Life,74.66,181.44,106.59,176.9,464.93,Single-ply,SBD,M
Boys,74.84,4,Kameron Blackmon,Red Oak Life,73.03,147.42,95.25,154.22,396.89,Single-ply,SBD,M
Boys,74.84,5,Jesse Landess,Scurry-Rosser,73.66,149.69,90.72,156.49,396.89,Single-ply,SBD,M
Boys,74.84,6,Jakeem Patrick,Dallas Life Oak Cliff,68.49,133.81,79.38,156.49,369.68,Single-ply,SBD,M
Boys,74.84,6,Jakeem Patrick,Dallas Life Oak Cliff,68.49,133.81,79.38,156.49,369.68,Single-ply,SBD,M
Boys,74.84,7,Billy Humphries,Corsicana Mildred,72.76,140.61,90.72,136.08,367.41,Single-ply,SBD,M
Boys,74.84,8,Blake Smith,Rice,74.48,124.74,81.65,151.95,358.34,Single-ply,SBD,M
Boys,74.84,9,Dalton Thorton,Blooming Grove,74.03,122.47,79.38,151.95,353.8,Single-ply,SBD,M
Boys,74.84,10,Slayden Morgan,Teague,73.66,129.27,72.57,145.15,347,Single-ply,SBD,M
Boys,74.84,11,Hayden Roberts,Teague,74.66,124.74,72.57,136.08,333.39,Single-ply,SBD,M
Boys,74.84,12,Jed Wout,Blooming Grove,72.3,124.74,63.5,142.88,331.12,Single-ply,SBD,M
Boys,74.84,13,Caleb Hensley,Rice,74.12,120.2,54.43,154.22,328.85,Single-ply,SBD,M
Boys,74.84,14,Kordell Tilley,Dallas Life Oak Cliff,68.4,115.67,77.11,124.74,317.51,Single-ply,SBD,M
Boys,74.84,14,Kordell Tilley,Dallas Life Oak Cliff,68.4,115.67,77.11,124.74,317.51,Single-ply,SBD,M
Boys,74.84,15,Ryan Edmonds,Teague,69.85,95.25,70.31,111.13,276.69,Single-ply,SBD,M
Boys,82.1,DQ,Trent Cecil,Corsicana Mildred,74.93,140.61,,,,Single-ply,SBD,M
Boys,82.1,1,Chris Atchley,Rice,78.29,181.44,117.93,213.19,512.56,Single-ply,SBD,M
Boys,82.1,2,Brett Mallon,Crandall,77.56,161.03,97.52,185.97,444.52,Single-ply,SBD,M
Boys,82.1,3,Brenden Blunt,Crandall,81.65,154.22,111.13,161.03,426.38,Single-ply,SBD,M
Boys,82.1,4,Guadalupe Torres,Dallas Life Oak Cliff,79.11,151.95,102.06,145.15,399.16,Single-ply,SBD,M
Boys,82.1,4,Guadalupe Torres,Dallas Life Oak Cliff,79.11,151.95,102.06,145.15,399.16,Single-ply,SBD,M
Boys,82.1,5,Hunter Ryan,Crandall,76.11,142.88,86.18,158.76,387.82,Single-ply,SBD,M
Boys,82.1,6,Jacob Ghormley,Crandall,75.84,122.47,88.45,151.95,362.87,Single-ply,SBD,M
Boys,82.1,7,Jason Smith,Teague,76.66,138.35,61.23,158.76,358.34,Single-ply,SBD,M
Boys,82.1,8,Alex Tovar,Blooming Grove,76.38,102.06,70.31,136.08,308.44,Single-ply,SBD,M
Boys,89.81,1,Keanu Fathal,Corsicana Mildred,84.73,190.51,120.2,183.7,494.42,Single-ply,SBD,M
Boys,99.79,2,Justin Smith,Rice,89.99,174.63,106.59,208.65,489.88,Single-ply,SBD,M
Boys,89.81,3,Colten Oder,Red Oak Life,85.55,176.9,102.06,183.7,462.66,Single-ply,SBD,M
Boys,89.81,4,Dalton Bramhall,Crandall,84.1,165.56,88.45,172.37,426.38,Single-ply,SBD,M
Boys,99.79,5,Jacob Gomez,Teague,89.99,142.88,102.06,176.9,421.84,Single-ply,SBD,M
Boys,89.81,6,Matt Hoffman,Red Oak Life,87,158.76,86.18,170.1,415.04,Single-ply,SBD,M
Boys,99.79,7,José Pérez,Teague,89.9,147.42,83.91,176.9,408.23,Single-ply,SBD,M
Boys,89.81,8,Rodrigo Morales,Teague,88.63,138.35,72.57,170.1,381.02,Single-ply,SBD,M
Boys,99.79,9,Josh Wiggins,Blooming Grove,89.99,142.88,86.18,147.42,376.48,Single-ply,SBD,M
Boys,89.81,DQ,Preston Stover,Red Oak Life,86.91,145.15,,,,Single-ply,SBD,M
Boys,99.79,1,Alex Zepeda,Crandall,99.34,190.51,115.67,192.78,498.95,Single-ply,SBD,M
Boys,99.79,2,Jason Day,Scurry-Rosser,97.98,190.51,124.74,181.44,496.68,Single-ply,SBD,M
Boys,99.79,3,Mazen Subuh,Red Oak Life,97.16,172.37,108.86,163.29,444.52,Single-ply,SBD,M
Boys,99.79,4,David Brown,Crandall,98.43,167.83,102.06,174.63,444.52,Single-ply,SBD,M
Boys,99.79,5,Dylan Byington,Crandall,97.43,165.56,92.99,181.44,439.98,Single-ply,SBD,M
Boys,99.79,6,Hunter Freeman,Corsicana Mildred,97.07,154.22,117.93,154.22,426.38,Single-ply,SBD,M
Boys,99.79,7,Gerardo Calixtro,Teague,98.97,192.78,83.91,149.69,426.38,Single-ply,SBD,M
Boys,99.79,8,Jimmy Landess,Scurry-Rosser,91.53,142.88,88.45,170.1,401.43,Single-ply,SBD,M
Boys,109.77,1,Tracy Hightower,Red Oak Life,104.51,226.8,115.67,197.31,539.77,Single-ply,SBD,M
Boys,109.77,2,Leal Sample,Scurry-Rosser,109.5,195.04,131.54,192.78,519.36,Single-ply,SBD,M
Boys,109.77,3,Justin Jackson,Crandall,102.69,199.58,106.59,201.85,508.02,Single-ply,SBD,M
Boys,109.77,4,Chauncey Rich,Red Oak Life,102.78,199.58,120.2,188.24,508.02,Single-ply,SBD,M
Boys,109.77,5,Jermal Warren,Dallas Life Oak Cliff,106.23,181.44,136.08,154.22,471.74,Single-ply,SBD,M
Boys,109.77,5,Jermal Warren,Dallas Life Oak Cliff,106.23,181.44,136.08,154.22,471.74,Single-ply,SBD,M
Boys,109.77,6,Anthony Regino,Rice,109.5,113.4,63.5,136.08,312.98,Single-ply,SBD,M
Boys,124.74,1,Ryan Mitchell,Teague,115.39,238.14,149.69,226.8,614.62,Single-ply,SBD,M
Boys,124.74,2,Reagan Cloud,Corsicana Mildred,114.03,215.46,124.74,165.56,505.76,Single-ply,SBD,M
Boys,124.74+,1,Jacob Reichenau,Crandall,135.81,206.38,113.4,217.72,537.51,Single-ply,SBD,M
