AgeClass,Name,Equipment,BodyweightKg,WeightClassKg,Division,Squat1Kg,Squat2Kg,Squat3Kg,Best3SquatKg,Bench1Kg,Bench2Kg,Bench3Kg,Best3BenchKg,Deadlift1Kg,Deadlift2Kg,Deadlift3Kg,Best3DeadliftKg,TotalKg,Place,Event,Sex
0-22.5,Cat Workman,Raw,49,52,F-C-G,55,60,67.5,67.5,25,32.5,40,40,92.5,100,110,110,217.5,G,SBD,F
0-22.5,Sarah Edgar King,Raw,62.3,63,F-C-G,142.5,152.5,-157.5,152.5,87.5,90,-93,90,150,177.5,,177.5,420,G,SBD,F
0-22.5,Laura Porter,Raw,70.7,72,F-C-G,75,-80,-85,75,45,-47.5,-47.5,45,110,115,-120,115,235,G,SBD,F
0-22.5,Lisa Cuerden,Raw,79.5,84,F-C-G,115,125,130,130,60,67.5,70,70,160,172.5,180,180,380,G,SBD,F
0-22.5,Rebecca Heath,Raw,48.4,52,F-C-Open,75,80,-85,80,45,-50,-50,45,90,95,100,100,225,1,SBD,F
39.5-48.5,Anita Kidgell,Raw,51.9,52,F-C-Open,47.5,55,60,60,38,45,-47.5,45,87.5,95,100,100,205,2,SBD,F
49.5-58.5,Jan Hobbs,Raw,50.9,52,F-C-Open,50,60,65,65,50,55,57.5,57.5,50,-65,67.5,67.5,190,3,SBD,F
0-22.5,Louise Richardson,Raw,68.8,72,F-C-Open,130,137.5,142.5,142.5,55,60,-65,60,155,-165,165,165,367.5,1,SBD,F
0-22.5,Diego Martinez-Rodney,Raw,81.7,83,M-C-G,180,195,205,205,125,130,132.5,132.5,250,-270,-270,250,587.5,G,SBD,M
0-22.5,Leo Doubble,Raw,82.5,83,M-C-G,170,180,182.5,182.5,115,-120,120,120,200,210,220,220,522.5,G,SBD,M
0-22.5,Paul Everson,Raw,81.3,83,M-C-G,150,160,165,165,105,110,112.5,112.5,180,190,-200,190,467.5,G,SBD,M
0-22.5,Thomas Roda,Raw,75.7,83,M-C-G,140,150,-160,150,100,-110,-110,100,170,190,-200,190,440,G,SBD,M
0-22.5,Matthew Fleet,Raw,90,93,M-C-G,200,220,,220,145,152.5,157.5,157.5,270,280,285,285,662.5,G,SBD,M
0-22.5,Simon Jirkiw,Raw,87.8,93,M-C-G,160,170,-180,170,137.5,141,145,145,250,265,-270,265,580,G,SBD,M
0-22.5,Hugo Duarte,Raw,89.1,93,M-C-G,180,195,-205,195,-120,120,125,125,220,235,-245,235,555,G,SBD,M
0-22.5,Ivan Otim,Raw,92.7,93,M-C-G,170,180,187.5,187.5,100,105,110,110,230,-250,-260,230,527.5,G,SBD,M
39.5-48.5,Didier Kan,Raw,87.1,93,M-C-G,165,172.5,180,180,105,112.5,115,115,175,190,195,195,490,G,SBD,M
0-22.5,Luke Nickol,Raw,84.1,93,M-C-G,125,140,155,155,95,105,110,110,175,190,202.5,202.5,467.5,G,SBD,M
0-22.5,David McWilliams,Raw,87.1,93,M-C-G,155,165,175,175,90,100,-110,100,170,180,190,190,465,G,SBD,M
39.5-48.5,Nathan Scott,Raw,101.3,105,M-C-G,200,220,230,230,-150,150,,150,290,305,-315.5,305,685,G,SBD,M
0-22.5,Ryan Faldo,Raw,105,105,M-C-G,215,227.5,-232.5,227.5,135,142.5,145,145,220,235,242.5,242.5,615,G,SBD,M
0-22.5,Matt Szuerbinski,Raw,94.5,105,M-C-G,180,187.5,192.5,192.5,-130,130,135,135,230,240,245,245,572.5,G,SBD,M
0-22.5,Anton Cataldo,Raw,93.4,105,M-C-G,175,185,190,190,105,-110,-110,105,220,230,235,235,530,G,SBD,M
0-22.5,Chris Ryan,Raw,98.5,105,M-C-G,145,152.5,162.5,162.5,92.5,97.5,-100,97.5,180,192.5,-205,192.5,452.5,G,SBD,M
0-22.5,Alexander Price,Raw,117.7,120,M-C-G,200,210,220,220,100,110,-120,110,225,235,-245,235,565,G,SBD,M
0-19.5,Dawid Rygielski,Raw,116.2,120,M-C-G,152.5,167.5,175,175,90,-100,-100,90,187.5,207.5,215,215,480,G,SBD,M
0-19.5,Rikka Marhkainer,Raw,56.7,59,M-C-Open,-70,-80,80,80,40,-45,-47.5,40,90,95,100,100,220,1,SBD,M
0-22.5,Ollie Brown,Raw,58,59,M-C-Open,,,,,70,75,82.5,82.5,,,,,82.5,1,B,M
0-22.5,Chris Simmons,Raw,65.6,66,M-C-Open,190,-200,-200,190,137.5,-140.5,140.5,140.5,200,215,-230.5,215,545.5,1,SBD,M
0-19.5,Andrew Dixon,Raw,66,66,M-C-Open,130,140,-150,140,80,85,87.5,87.5,187.5,200,-205,200,427.5,2,SBD,M
0-17.5,Ben Ayling,Raw,72.4,74,M-C-Open,125,-135,135,135,70,-75,-75,70,165,175,185,185,390,1,SBD,M
59.5-68.5,Steve Shah,Raw,73.1,74,M-C-Open,90,100,110,110,75,80,85,85,140,150,162.5,162.5,357.5,2,SBD,M
39.5-48.5,John Burrows,Raw,82,83,M-C-Open,180,200,,200,-152.5,155,-160,155,180,-200,,180,535,1,SBD,M
0-22.5,Dan Ben-Chorin,Raw,81.4,83,M-C-Open,170,185,190,190,-110,110,117.5,117.5,200,212.5,-220,212.5,520,2,SBD,M
0-22.5,Ryan Baker,Raw,81,83,M-C-Open,150,170,180,180,80,95,105,105,170,195,210,210,495,3,SBD,M
59.5-68.5,John Reeves,Raw,82,83,M-C-Open,115,-120,-125,115,90,-95,95,95,130,137.5,-142.5,137.5,347.5,4,SBD,M
49.5-58.5,Ed Shorttle,Raw,76.7,83,M-C-Open,90,92.5,97.5,97.5,72.5,75,-77.5,75,140,-152.5,-165,140,312.5,5,SBD,M
0-22.5,Ross Brimsted,Raw,91.8,93,M-C-Open,200,210,220,220,140,150,-155,150,240,250,260,260,630,1,SBD,M
39.5-48.5,Alan Joseph,Raw,83.1,93,M-C-Open,170,180,190,190,115,122.5,125,125,220,235,245,245,560,2,SBD,M
39.5-48.5,Justin Hemingway,Raw,91.6,93,M-C-Open,180,190,200,200,120,-125,125,125,160,180,190,190,515,3,SBD,M
0-22.5,Daniel Russel,Raw,84.8,93,M-C-Open,150,175,-180,175,115,-130,-135,115,180,200,220,220,510,4,SBD,M
49.5-58.5,Mark Macey,Raw,91.4,93,M-C-Open,175,-185,185,185,110,120,-130,120,190,205,-212.5,205,510,5,SBD,M
0-22.5,Alex Harlow,Raw,90.3,93,M-C-Open,-165,170,-180,170,110,115,-122.5,115,185,195,205,205,490,6,SBD,M
39.5-48.5,Russ Kirby,Raw,103.4,105,M-C-Open,230,240,245,245,160,170,-172.5,170,230,240,245,245,660,1,SBD,M
49.5-58.5,Steve Blackwell,Raw,101,105,M-C-Open,190,200,,200,150,155,,155,260,280,,280,635,2,SBD,M
0-22.5,Aaron Jackson,Raw,97.1,105,M-C-Open,170,-180,185,185,-115,120,125,125,210,220,230,230,540,3,SBD,M
0-22.5,Aaron Fillery,Raw,93.6,105,M-C-Open,165,175,177.5,177.5,117.5,120,122.5,122.5,200,210,212.5,212.5,512.5,4,SBD,M
0-17.5,Daniel Fletcher,Raw,103.2,105,M-C-Open,165,175,182.5,182.5,110,-115,-115,110,190,200,207.5,207.5,500,5,SBD,M
0-17.5,Cameron Keyes,Raw,94,105,M-C-Open,140,150,160,160,95,100,-102.5,100,190,202.5,212.5,212.5,472.5,6,SBD,M
0-22.5,Matt Ward #3,Raw,96.1,105,M-C-Open,150,160,170,170,90,95,-100,95,175,185,-192.5,185,450,7,SBD,M
0-22.5,Luarence Lefevre,Raw,96.6,105,M-C-Open,190,205,-212.5,205,-150,-150,-150,,240,255,262.5,262.5,,DQ,SBD,M
0-22.5,Simon Timpson,Raw,116.7,120,M-C-Open,200,220,-230,220,140,155,-170.5,155,240,,,240,615,1,SBD,M
0-19.5,Dave Cridland,Raw,115.5,120,M-C-Open,170,180,190,190,-120,120,-130,120,200,210,220,220,530,2,SBD,M
39.5-48.5,Dave Hill,Raw,108.5,120,M-C-Open,-170,180,195,195,100,110,115,115,190,200,-205,200,510,3,SBD,M
0-22.5,Sam Smith,Raw,113.1,120,M-C-Open,145,155,165,165,115,125,-135,125,190,205,-212.5,205,495,4,SBD,M
49.5-58.5,Toby Eves,Raw,113.1,120,M-C-Open,150,160,170,170,100,-110,-110,100,180,190,-195,190,460,5,SBD,M
39.5-48.5,Lee Richards,Raw,121.5,120+,M-C-Open,,,,,155,160,-167.5,160,,,,,160,1,B,M
