Division,WeightClassKg,Place,Name,Team,BodyweightKg,Best3SquatKg,Best3BenchKg,Best3DeadliftKg,TotalKg,Equipment,Event,Sex
Freshmen,51.71,1,Eddie Macias,Laredo Nixon,46.08,90.72,52.16,102.06,244.94,Single-ply,SBD,M
Freshmen,51.71,2,Everardo Garcia,Roma,47.49,86.18,54.43,92.99,233.6,Single-ply,SBD,M
Freshmen,55.79,1,Jerry Martinez,Laredo Johnson,54.84,111.13,68.04,124.74,303.91,Single-ply,SBD,M
Freshmen,55.79,2,Adrian Maldonado,Roma,55.47,106.59,61.23,111.13,278.96,Single-ply,SBD,M
Freshmen,59.87,1,Jose Ruvalcaba,Laredo Johnson,59.83,124.74,68.04,138.35,331.12,Single-ply,SBD,M
Freshmen,59.87,2,Bryan Avalos,Laredo United South,56.47,106.59,68.04,142.88,317.51,Single-ply,SBD,M
Freshmen,59.87,3,Matthew Ruiz,Laredo Nixon,57.15,97.52,61.23,136.08,294.84,Single-ply,SBD,M
Freshmen,59.87,4,Lloyd Soto,Laredo United,59.69,97.52,52.16,122.47,272.16,Single-ply,SBD,M
Freshmen,59.87,5,Mark Ramirez,Roma,55.97,97.52,61.23,104.33,263.08,Single-ply,SBD,M
Freshmen,59.87,6,Jorge Soto,Roma,58.65,97.52,63.5,102.06,263.08,Single-ply,SBD,M
Freshmen,59.87,7,Jaylen Flores,Laredo United,59.87,95.25,47.63,117.93,260.82,Single-ply,SBD,M
Freshmen,67.13,1,Robert Garcia,Laredo Alexander,65.77,115.67,70.31,145.15,331.12,Single-ply,SBD,M
Freshmen,67.13,2,Javi Ledezma,Laredo United,62.28,124.74,65.77,124.74,315.25,Single-ply,SBD,M
Freshmen,67.13,3,Jerry Gonzalez,Laredo United,62.28,113.4,63.5,136.08,312.98,Single-ply,SBD,M
Freshmen,67.13,4,Servero Morales,Laredo Nixon,66.18,108.86,68.04,124.74,301.64,Single-ply,SBD,M
Freshmen,67.13,5,Albert Laurel,Laredo Alexander,61.51,108.86,61.23,120.2,290.3,Single-ply,SBD,M
Freshmen,67.13,6,Jonathan Lomeli,Laredo Johnson,63.09,95.25,58.97,136.08,290.3,Single-ply,SBD,M
Freshmen,67.13,7,Andrew Gonzalez,Laredo Alexander,65.05,106.59,54.43,124.74,285.76,Single-ply,SBD,M
Freshmen,67.13,DQ,Edelmiro Cortez,Roma,61.37,90.72,,,,Single-ply,SBD,M
Freshmen,74.84,1,Juan Gutierrez,Laredo United,72.03,136.08,77.11,142.88,356.07,Single-ply,SBD,M
Freshmen,74.84,2,Andre Pedraza,Laredo Nixon,71.46,129.27,61.23,154.22,344.73,Single-ply,SBD,M
Freshmen,74.84,3,David Macias,Laredo United,73.39,124.74,61.23,145.15,331.12,Single-ply,SBD,M
Freshmen,74.84,4,Jose Rodriguez,Roma,67.9,106.59,65.77,104.33,276.69,Single-ply,SBD,M
Freshmen,74.84,5,Rodolfo Garcia,Laredo Martin,71.03,83.91,58.97,106.59,249.48,Single-ply,SBD,M
Freshmen,82.1,1,Ismael Espinos,Laredo Johnson,78.47,145.15,83.91,158.76,387.82,Single-ply,SBD,M
Freshmen,82.1,2,Oscar Monroy,Laredo Nixon,81.06,136.08,92.99,154.22,383.29,Single-ply,SBD,M
Freshmen,82.1,3,Alex Moreno,Laredo Johnson,82.1,142.88,83.91,154.22,381.02,Single-ply,SBD,M
Freshmen,82.1,4,Mario Valdez,Laredo Nixon,75.7,136.08,70.31,147.42,353.8,Single-ply,SBD,M
Freshmen,82.1,5,Gilbert Sanchez,Laredo Johnson,77.56,117.93,70.31,151.95,340.19,Single-ply,SBD,M
Freshmen,82.1,6,Carlos Zapata,Laredo United,76.16,106.59,63.5,142.88,312.98,Single-ply,SBD,M
Freshmen,82.1,7,Adalberto Alaniz,Roma,81.47,124.74,70.31,108.86,303.91,Single-ply,SBD,M
Freshmen,82.1,8,Joshua Rodriguez,Laredo Alexander,76.52,102.06,61.23,113.4,276.69,Single-ply,SBD,M
Freshmen,82.1,9,Enrique Garcia,Laredo United South,81.06,74.84,56.7,120.2,251.74,Single-ply,SBD,M
Freshmen,82.1,10,Braulio Soliz,Laredo Martin,78.06,81.65,36.29,90.72,208.65,Single-ply,SBD,M
Freshmen,89.81,1,Santino Palizo,Laredo Alexander,87.23,142.88,99.79,147.42,390.09,Single-ply,SBD,M
Freshmen,89.81,2,Luis Aguirre,Laredo Martin,89.04,145.15,70.31,172.37,387.82,Single-ply,SBD,M
Freshmen,89.81,3,Javier Rodriguez,Laredo Nixon,87.59,142.88,70.31,163.29,376.48,Single-ply,SBD,M
Freshmen,89.81,4,Jose Rodriguez,Laredo Nixon,84.96,127.01,70.31,142.88,340.19,Single-ply,SBD,M
Freshmen,89.81,DQ,Dominique Madrid,Laredo Johnson,86.55,,,,,Single-ply,SBD,M
Freshmen,99.79,1,Ismael Garcia,Laredo Johnson,90.63,181.44,81.65,145.15,408.23,Single-ply,SBD,M
Freshmen,99.79,2,Jorge Galvan,Laredo Johnson,94.08,151.95,70.31,167.83,390.09,Single-ply,SBD,M
Freshmen,99.79,3,Luis Pacheco #1,Laredo Nixon,94.89,165.56,68.04,154.22,387.82,Single-ply,SBD,M
Freshmen,99.79,4,Kristian Karrodi,Laredo Alexander,96.43,142.88,88.45,154.22,385.55,Single-ply,SBD,M
Freshmen,99.79,5,Victor Flores,Laredo Johnson,99.11,133.81,86.18,156.49,376.48,Single-ply,SBD,M
Freshmen,99.79,6,Luis Canales,Laredo Alexander,94.17,140.61,90.72,142.88,374.21,Single-ply,SBD,M
Freshmen,99.79,7,Victor Pena,Roma,90.36,113.4,70.31,142.88,326.59,Single-ply,SBD,M
Freshmen,99.79,8,Cesar Castaneda,Laredo United,92.58,108.86,61.23,124.74,294.84,Single-ply,SBD,M
Freshmen,99.79,9,Vladimir Villanueva,Laredo United South,94.98,90.72,65.77,111.13,267.62,Single-ply,SBD,M
Freshmen,99.79,10,Josue Hernandez,Laredo United South,96.8,79.38,61.23,106.59,247.21,Single-ply,SBD,M
Freshmen,99.79,DQ,Mauricio Rodriguez #2,Laredo United,96.71,129.27,,,,Single-ply,SBD,M
Freshmen,109.77,1,Mathew Vazquez,Laredo Alexander,105.05,147.42,88.45,197.31,433.18,Single-ply,SBD,M
Freshmen,109.77,2,Joshua Tejeda,Roma,100.47,172.37,86.18,172.37,430.91,Single-ply,SBD,M
Freshmen,109.77,3,Frankie Galan,Roma,102.56,142.88,99.79,149.69,392.36,Single-ply,SBD,M
Freshmen,109.77,4,Christian Gonzalez,Laredo Nixon,107.82,136.08,72.57,181.44,390.09,Single-ply,SBD,M
Freshmen,109.77,5,Pablo Salazar,Laredo Nixon,102.42,145.15,72.57,170.1,387.82,Single-ply,SBD,M
Freshmen,109.77,6,Khalid Santiago,Laredo United South,107.77,131.54,68.04,170.1,369.68,Single-ply,SBD,M
Freshmen,109.77,DQ,Jerremy Ramirez,Laredo United,106.73,151.95,,,,Single-ply,SBD,M
Freshmen,109.77,DQ,Diego Meza,Laredo United,104.46,147.42,,,,Single-ply,SBD,M
Freshmen,124.74,1,Myriel Jaramillo,Laredo Johnson,112.94,183.7,95.25,163.29,442.25,Single-ply,SBD,M
Freshmen,124.74,2,Gabriel Cardenas,Laredo Nixon,123.88,124.74,102.06,154.22,381.02,Single-ply,SBD,M
Freshmen,124.74,3,Oziel Lugo,Laredo Nixon,118.61,131.54,79.38,165.56,376.48,Single-ply,SBD,M
Freshmen,124.74,DQ,Eduardo Arriaga,Laredo United,120.38,106.59,,,,Single-ply,SBD,M
Boys,51.71,1,Robert Gonzalez,Laredo Cigarroa,51.35,170.1,83.91,167.83,421.84,Single-ply,SBD,M
Boys,51.71,2,Danny Ruiz,Zapata,50.12,140.61,72.57,151.95,365.14,Single-ply,SBD,M
Boys,51.71,3,Oscar Martel,Laredo United South,48.26,129.27,86.18,136.08,351.53,Single-ply,SBD,M
Boys,51.71,4,Ramiro Trevino,Laredo Nixon,49.03,131.54,68.04,147.42,347,Single-ply,SBD,M
Boys,55.79,1,Jesus Trevino,Zapata,54.61,172.37,99.79,192.78,464.93,Single-ply,SBD,M
Boys,55.79,2,Raul Fuentes,Laredo Nixon,53.52,81.65,52.16,102.06,235.87,Single-ply,SBD,M
Boys,59.87,1,Mac Gomez,Zapata,58.56,222.26,99.79,215.46,537.51,Single-ply,SBD,M
Boys,59.87,2,Mario Saldivar,Laredo Alexander,57.33,167.83,92.99,181.44,442.25,Single-ply,SBD,M
Boys,59.87,3,JC Gutierrez,Zapata,59.15,167.83,90.72,176.9,435.45,Single-ply,SBD,M
Boys,59.87,4,Jose Alcorta,Laredo United South,57.97,127.01,86.18,158.76,371.95,Single-ply,SBD,M
Boys,59.87,5,Jonathan Diaz,Laredo Martin,59.87,138.35,70.31,158.76,367.41,Single-ply,SBD,M
Boys,59.87,6,Marco Martínez,Laredo United,59.38,117.93,81.65,145.15,344.73,Single-ply,SBD,M
Boys,59.87,7,Manuel Guevara,Laredo Nixon,55.93,106.59,58.97,136.08,301.64,Single-ply,SBD,M
Boys,67.13,1,Josue Tobias,Laredo Nixon,66.45,213.19,122.47,238.14,573.79,Single-ply,SBD,M
Boys,67.13,2,Oscar Galvan,Laredo United South,66.13,185.97,136.08,208.65,530.7,Single-ply,SBD,M
Boys,67.13,3,Albert Betancourt,Laredo Johnson,64.91,154.22,79.38,183.7,417.3,Single-ply,SBD,M
Boys,67.13,4,Jeremine Jimenez,Laredo United South,60.87,142.88,90.72,174.63,408.23,Single-ply,SBD,M
Boys,67.13,5,CJ Uribe,Zapata,67,151.95,88.45,165.56,405.97,Single-ply,SBD,M
Boys,67.13,6,Joseph Lozano,Laredo Nixon,65.86,147.42,79.38,163.29,390.09,Single-ply,SBD,M
Boys,67.13,7,Guillermo Compton,Laredo Alexander,65.36,127.01,92.99,158.76,378.75,Single-ply,SBD,M
Boys,67.13,8,Juan Guerrero,Laredo United South,66.81,131.54,70.31,161.03,362.87,Single-ply,SBD,M
Boys,74.84,1,Rene Cabrrera,Laredo Cigarroa,71.4,222.26,108.86,167.83,498.95,Single-ply,SBD,M
Boys,74.84,2,Chris Cazares,Laredo United,69.26,145.15,104.33,190.51,439.98,Single-ply,SBD,M
Boys,74.84,3,Jesus Palmerin,Laredo Nixon,73.75,170.1,83.91,174.63,428.64,Single-ply,SBD,M
Boys,74.84,4,Albert Garcia,Laredo Johnson,69.04,161.03,92.99,172.37,426.38,Single-ply,SBD,M
Boys,74.84,5,Eddie Pedraza,Laredo United,68.08,129.27,102.06,183.7,415.04,Single-ply,SBD,M
Boys,74.84,6,Jacoby Torres,Laredo Alexander,72.08,142.88,81.65,147.42,371.95,Single-ply,SBD,M
Boys,74.84,7,Mando Villanueva,Laredo United,74.84,120.2,95.25,145.15,360.61,Single-ply,SBD,M
Boys,74.84,DQ,Federico Mendez,Laredo Martin,71.12,151.95,,,,Single-ply,SBD,M
Boys,74.84,DQ,Chris LaRosch,Zapata,72.48,,,,,Single-ply,SBD,M
Boys,82.1,1,Kevin Martinez,Laredo United South,82.1,217.72,120.2,224.53,562.45,Single-ply,SBD,M
Boys,82.1,2,Jordan Perez,Laredo United South,80.56,213.19,138.35,208.65,560.19,Single-ply,SBD,M
Boys,82.1,3,Manny Garza,Laredo United,79.2,199.58,122.47,219.99,542.04,Single-ply,SBD,M
Boys,82.1,4,Leo Benavides,Laredo Johnson,79.06,197.31,102.06,183.7,483.08,Single-ply,SBD,M
Boys,82.1,5,Mauricio Vasquez,Laredo Alexander,80.51,213.19,102.06,154.22,469.47,Single-ply,SBD,M
Boys,82.1,6,Kim Ho,Laredo Martin,80.65,165.56,102.06,197.31,464.93,Single-ply,SBD,M
Boys,82.1,7,Luis Rodriguez,Laredo Nixon,79.79,176.9,90.72,192.78,460.4,Single-ply,SBD,M
Boys,82.1,8,Chris Garza,Zapata,75.98,170.1,117.93,165.56,453.59,Single-ply,SBD,M
Boys,82.1,9,Raul Solis,Laredo Cigarroa,78.65,127.01,86.18,163.29,376.48,Single-ply,SBD,M
Boys,82.1,10,Pablo Ramirez,Laredo Alexander,75.3,127.01,77.11,142.88,347,Single-ply,SBD,M
Boys,89.81,1,David Luna,Laredo Johnson,87.91,272.16,138.35,238.14,648.64,Single-ply,SBD,M
Boys,89.81,2,Joseph Jimenez,Laredo United South,89.72,206.38,142.88,233.6,582.87,Single-ply,SBD,M
Boys,89.81,3,Dominic Rodriguez,Laredo Johnson,85.59,188.24,120.2,231.33,539.77,Single-ply,SBD,M
Boys,89.81,4,Omar Galan,Laredo Alexander,87.04,185.97,129.27,222.26,537.51,Single-ply,SBD,M
Boys,89.81,5,Greggorio Sandoval,Laredo Martin,88.72,183.7,149.69,181.44,514.83,Single-ply,SBD,M
Boys,89.81,6,Marco Munoz,Laredo Nixon,84.28,183.7,102.06,204.12,489.88,Single-ply,SBD,M
Boys,89.81,7,Mark Rodriguez,Laredo United,86.09,170.1,99.79,190.51,460.4,Single-ply,SBD,M
Boys,89.81,8,Eddie Herrejon,Laredo United,89.68,156.49,102.06,195.04,453.59,Single-ply,SBD,M
Boys,99.79,1,Victor Lozano,Laredo Nixon,92.03,222.26,113.4,201.85,537.51,Single-ply,SBD,M
Boys,99.79,2,Daniel Uribe,Laredo Johnson,99.29,204.12,90.72,226.8,521.63,Single-ply,SBD,M
Boys,99.79,3,David De Luna,Laredo United South,92.22,158.76,111.13,199.58,469.47,Single-ply,SBD,M
Boys,99.79,4,Brayan Hernadez,Laredo United,92.26,154.22,99.79,204.12,458.13,Single-ply,SBD,M
Boys,99.79,5,Ray Perez,Laredo Alexander,95.07,158.76,102.06,170.1,430.91,Single-ply,SBD,M
Boys,109.77,1,Franco Arce,Zapata,102.06,272.16,127.01,238.14,637.3,Single-ply,SBD,M
Boys,109.77,2,Eddie Dominquez,Laredo United,102.6,226.8,117.93,233.6,578.33,Single-ply,SBD,M
Boys,109.77,3,Abel Mendoza,Laredo Nixon,108.18,208.65,133.81,199.58,542.04,Single-ply,SBD,M
Boys,109.77,4,Michael Almedina,Zapata,104.55,195.04,104.33,238.14,537.51,Single-ply,SBD,M
Boys,109.77,5,Guillermo Perez,Laredo Johnson,102.33,183.7,124.74,204.12,512.56,Single-ply,SBD,M
Boys,109.77,6,Adaain Casso,Laredo Johnson,105.37,206.38,79.38,190.51,476.27,Single-ply,SBD,M
Boys,109.77,7,Jesus Mercado,Roma,106.91,181.44,99.79,172.37,453.59,Single-ply,SBD,M
Boys,109.77,8,Jesus Moreno,Laredo Alexander,101.83,158.76,106.59,183.7,449.06,Single-ply,SBD,M
Boys,109.77,9,Eleazar Salvador,Laredo United South,109,142.88,86.18,165.56,394.63,Single-ply,SBD,M
Boys,124.74,1,Francisco Torrecilla,Laredo Nixon,117.07,258.55,136.08,249.48,644.1,Single-ply,SBD,M
Boys,124.74,2,Erick Chapa,Zapata,117.84,269.89,142.88,231.33,644.1,Single-ply,SBD,M
Boys,124.74,3,Oscar Zepeda,Zapata,116.66,235.87,149.69,210.92,596.47,Single-ply,SBD,M
Boys,124.74,4,Gabino Barrera,Roma,113.44,263.08,124.74,204.12,591.94,Single-ply,SBD,M
Boys,124.74,5,Marcos Solis,Roma,116.75,235.87,122.47,190.51,548.85,Single-ply,SBD,M
Boys,124.74,6,Reynaldo Martinez,Laredo Johnson,122.33,215.46,113.4,219.99,548.85,Single-ply,SBD,M
Boys,124.74,7,Reynaldo Martinez,Laredo Martin,112.94,215.46,102.06,226.8,544.31,Single-ply,SBD,M
Boys,124.74,8,Jordi Perez,Laredo United,114.17,188.24,127.01,192.78,508.02,Single-ply,SBD,M
Boys,124.74,9,Jorge Gutierrez,Laredo Cigarroa,112.94,199.58,79.38,204.12,483.08,Single-ply,SBD,M
Boys,124.74,10,Max Villarreal,Laredo United,116.21,204.12,74.84,197.31,476.27,Single-ply,SBD,M
Boys,124.74,11,Chris Iruegas,Laredo Alexander,113.35,145.15,104.33,154.22,403.7,Single-ply,SBD,M
Boys,124.74,12,Justin Trevino,Laredo Martin,114.17,161.03,72.57,158.76,392.36,Single-ply,SBD,M
Boys,124.74,13,Anthony Alborta,Laredo Martin,116.57,145.15,68.04,149.69,362.87,Single-ply,SBD,M
Boys,124.74+,1,Hugo Martinez,Zapata,128.32,310.71,147.42,272.16,730.28,Single-ply,SBD,M
Boys,124.74+,2,Guadalupe Gonzalez,Laredo Martin,132.18,272.16,136.08,254.01,662.24,Single-ply,SBD,M
Boys,124.74+,3,Jose Salvador,Laredo United South,139.39,254.01,163.29,235.87,653.17,Single-ply,SBD,M
Boys,124.74+,4,Jose Beltran,Laredo Martin,132.99,254.01,147.42,206.38,607.81,Single-ply,SBD,M
Boys,124.74+,5,Juan Vieyra,Laredo Johnson,140.98,204.12,122.47,217.72,544.31,Single-ply,SBD,M
Boys,124.74+,6,Isaac Paredes,Laredo United South,153.13,188.24,142.88,183.7,514.83,Single-ply,SBD,M
Boys,124.74+,7,Miguel Rubio,Laredo Alexander,138.89,154.22,95.25,165.56,415.04,Single-ply,SBD,M
Boys,124.74+,DQ,Luis Barron,Laredo Johnson,132.68,208.65,,,,Single-ply,SBD,M
