Name,Team,Sex,BirthDate,BodyweightKg,Age,Division,WeightClassKg,Country,Squat1Kg,Squat2Kg,Squat3Kg,Best3SquatKg,Squat4Kg,Bench1Kg,Bench2Kg,Bench3Kg,Best3BenchKg,Bench4Kg,Deadlift1Kg,Deadlift2Kg,Deadlift3Kg,Best3DeadliftKg,Deadlift4Kg,TotalKg,Event,Equipment,Place
Anggie Quiñonez,IPO,F,1993-04-01,70.8,24,Open,75,Ecuador,150,160,-170,160,,70,-80,80,80,,140,150,165,165,,405,SBD,Wraps,2
Jose Mata,IPO,M,1941-04-29,66.6,76,Open,67.5,Argentina,130,140.5,147.5,147.5,,70,75,-80,75,,160,-172.5,-185,160,,382.5,SBD,Wraps,7
Jose Mata,IPO,M,1941-04-29,66.6,76,M70-79,67.5,Argentina,130,140.5,147.5,147.5,,70,75,-80,75,,160,-172.5,-185,160,,382.5,SBD,Wraps,2
Julio Cesar Chura,IPO,M,1946-07-01,65,71,Open,67.5,Peru,-125,125,135,135,,-100,110,115,115,,135,155,-160,155,,405,SBD,Wraps,5
Julio Cesar Chura,IPO,M,1946-07-01,65,71,M70-79,67.5,Peru,-125,125,135,135,,-100,110,115,115,,135,155,-160,155,,405,SBD,Wraps,1
Julio Ticona Nieto,IPO,M,1959-07-04,73.5,58,Open,75,Peru,145,155,165,165,,115,125,-127.5,125,,140,150,160,160,,450,SBD,Wraps,11
Julio Ticona Nieto,IPO,M,1959-07-04,73.5,58,M50-59,75,Peru,145,155,165,165,,115,125,-127.5,125,,140,150,160,160,,450,SBD,Wraps,1
Jhon Mejia Ortiz,IPO,M,1970-08-24,73,47,Open,75,Colombia,240,255,277.5,277.5,,130,-140,-140,130,,210,222.5,-232.5,222.5,,630,SBD,Wraps,2
Jhon Mejia Ortiz,IPO,M,1970-08-24,73,47,M40-49,75,Colombia,240,255,277.5,277.5,,130,-140,-140,130,,210,222.5,-232.5,222.5,,630,SBD,Wraps,1
Anthony Sanchez,IPO,M,1996-02-22,80.5,21,Open,82.5,Ecuador,290,305,-315,305,,140,180,-190,180,,260,275,-290,275,,760,SBD,Wraps,1
Anthony Sanchez,IPO,M,1996-02-22,80.5,21,Jun,82.5,Ecuador,290,305,-315,305,,140,180,-190,180,,260,275,-290,275,,760,SBD,Wraps,1
Sergio Barrientos,IPO,M,1978-09-03,80.9,39,Open,82.5,Argentina,250,-270,-290,250,,175,-185,-185,175,,220,,,220,,645,SBD,Wraps,4
David Bajaña Troya,IPO,M,1996-08-30,86.2,21,Open,90,Ecuador,240,250,-265,250,,140,150,,150,,230,240,-265,240,,640,SBD,Wraps,5
David Bajaña Troya,IPO,M,1996-08-30,86.2,21,Jun,90,Ecuador,240,250,-265,250,,140,150,,150,,230,240,-265,240,,640,SBD,Wraps,1
Matias Flores,IPO,M,1985-05-04,88.1,32,Open,90,Argentina,-310,320,-340,320,,165,190,-200,190,,250,270,-285,270,,780,SBD,Wraps,2
Gustavo Coronel,IPO,M,1967-09-29,96,50,Open,100,Argentina,-170,170,190,190,,105,115,122.5,122.5,,170,,,170,,482.5,SBD,Wraps,9
Gustavo Coronel,IPO,M,1967-09-29,96,50,M50-59,100,Argentina,-170,170,190,190,,105,115,122.5,122.5,,170,,,170,,482.5,SBD,Wraps,1
Leandro Gomez,IPO,M,1990-05-17,93.1,27,Open,100,Argentina,320,-340,-340,320,,320,-340,-340,320,,,,,,,,SBD,Wraps,DQ
Ademir Leivas,IPO,M,1986-12-14,107.2,30,Open,110,Brazil,350,380,402.5,402.5,,75,85,92.5,92.5,,275,-290,-290,275,,770,SBD,Multi-ply,4
Franco Quijanes,IPO,M,1990-10-17,104,27,Open,110,Chile,265,285,-300,285,,145,155,165,165,,245,-260,-260,245,,695,SBD,Wraps,7
José Cortés,IPO,M,1992-10-07,122,25,Open,125,Chile,225,245,265,265,,140,152.5,-160,152.5,,235,255,-265,255,,672.5,SBD,Wraps,4
Claudia Flores,GPA,F,1994-12-25,46.7,22,Open,48,Peru,-100,120,-125,120,,45,50,52.5,52.5,,-110,110,120,120,,292.5,SBD,Wraps,1
Claudia Flores,GPA,F,1994-12-25,46.7,22,Jun,48,Peru,-100,120,-125,120,,45,50,52.5,52.5,,-110,110,120,120,,292.5,SBD,Wraps,1
Raquel Mashacure,GPA,F,1989-11-23,43.3,,Open,44,Peru,-107.5,-107.5,107.5,107.5,,45,50,52.5,52.5,,105,110,115,115,,275,SBD,Wraps,1
Karina Garces Herrera,GPA,F,1993-07-24,44,24,Open,44,Chile,85,92.5,-100,92.5,,40,-42.5,42.5,42.5,,100,107.5,-115,107.5,,242.5,SBD,Wraps,2
Maria Paz Batalla,GPA,F,1984-05-23,47.3,33,Open,48,Chile,85,90,-100,90,,47.5,52.5,57.5,57.5,,95,-105,-107.5,95,,242.5,SBD,Wraps,3
Karina Carricaburu,GPA,F,1973-01-06,47.5,44,Open,48,Argentina,-95,95,103,103,-107.5,45,50,-53,50,,120,127.5,133,133,,286,SBD,Wraps,2
Karina Carricaburu,GPA,F,1973-01-06,47.5,44,M40-49,48,Argentina,-95,95,103,103,-107.5,45,50,-53,50,,120,127.5,133,133,,286,SBD,Wraps,1
Fernanda de Lima,GPA,F,1995-02-01,49.7,22,Open,52,Brazil,120,135,-140,135,,45,-50,50,50,,135,147.5,-152.5,147.5,,332.5,SBD,Wraps,3
Fernanda de Lima,GPA,F,1995-02-01,49.7,22,Jun,52,Brazil,120,135,-140,135,,45,-50,50,50,,135,147.5,-152.5,147.5,,332.5,SBD,Wraps,1
Darleys Hernadez,GPA,F,1993-12-10,50.9,23,Open,52,Colombia,95,102.5,107.5,107.5,,37.5,42.5,-50,42.5,,95,-100,-100,95,,245,SBD,Wraps,4
Darleys Hernadez,GPA,F,1993-12-10,50.9,23,Jun,52,Colombia,95,102.5,107.5,107.5,,37.5,42.5,-50,42.5,,95,-100,-100,95,,245,SBD,Wraps,2
Carolina Ramos,GPA,F,1991-11-25,49.8,25,Open,52,Argentina,137.5,145,147.5,147.5,,70,72.5,-75,72.5,,150,165,-170,165,,385,SBD,Wraps,1
Veronica Garcia,GPA,F,1976-08-31,51.5,41,Open,52,Argentina,115,125,134,134,-137.5,70,75,80.5,80.5,81,105,115,120,120,,334.5,SBD,Wraps,2
Veronica Garcia,GPA,F,1976-08-31,51.5,41,M40-49,52,Argentina,115,125,134,134,-137.5,70,75,80.5,80.5,81,105,115,120,120,,334.5,SBD,Wraps,1
Liliana Mina,GPA,F,1970-12-12,47.7,46,Open,48,Peru,80,-85,-85,80,,50,52.5,-55,52.5,,80,82.5,85,85,,217.5,SBD,Wraps,4
Liliana Mina,GPA,F,1970-12-12,47.7,46,M40-49,48,Peru,80,-85,-85,80,,50,52.5,-55,52.5,,80,82.5,85,85,,217.5,SBD,Wraps,2
Eliana Marcillo,GPA,F,1995-03-29,58.8,22,Open,60,Colombia,137.5,147.5,157.5,157.5,160,75,82.5,87.5,87.5,-90,125,137.5,148,148,150,393,SBD,Wraps,2
Eliana Marcillo,GPA,F,1995-03-29,58.8,22,Jun,60,Colombia,137.5,147.5,157.5,157.5,160,75,82.5,87.5,87.5,-90,125,137.5,148,148,150,393,SBD,Wraps,1
Mary Luz Henao,GPA,F,1980-03-08,54.3,37,Open,56,Colombia,-110,110,120,120,,50,-57.5,57.5,57.5,,140,152.5,-155,152.5,,330,SBD,Wraps,2
Lorena Roa Torres,GPA,F,1984-01-08,55.4,33,Open,56,Chile,100,-110,-110,100,,50,55,-57.5,55,,125,130,-140,130,,285,SBD,Wraps,3
Maria Pinargote,GPA,F,1998-12-01,53.1,18,Open,56,Ecuador,80,90,95,95,,45,52.5,57.5,57.5,,95,105,115,115,,267.5,SBD,Wraps,4
Maria Pinargote,GPA,F,1998-12-01,53.1,18,Tn 18-19,56,Ecuador,80,90,95,95,,45,52.5,57.5,57.5,,95,105,115,115,,267.5,SBD,Wraps,1
Maria Liz Angulo,GPA,F,1974-01-18,53.6,43,Open,56,Bolivia,115,120,-130,120,,65,70,72.5,72.5,,130,135,140,140,,332.5,SBD,Wraps,1
Maria Liz Angulo,GPA,F,1974-01-18,53.6,43,M40-49,56,Bolivia,115,120,-130,120,,65,70,72.5,72.5,,130,135,140,140,,332.5,SBD,Wraps,1
Natalia Uranga,GPA,F,1987-08-20,58.2,30,Open,60,Argentina,165,177.5,-185.5,177.5,,72.5,77.5,82.5,82.5,,170,180,190,190,195,450,SBD,Wraps,1
Yasnna Riffo,GPA,F,1973-11-01,58,44,Open,60,Chile,135,145,150,150,,70,75,80,80,,135,145,155,155,,385,SBD,Wraps,3
Yasnna Riffo,GPA,F,1973-11-01,58,44,M40-49,60,Chile,135,145,150,150,,70,75,80,80,,135,145,155,155,,385,SBD,Wraps,1
Alejandra Zeballos,GPA,F,1970-03-06,56.8,47,Open,60,Argentina,-105,105,-120,105,,60,67.5,-72.5,67.5,,130,150,155,155,-160.5,327.5,SBD,Wraps,4
Alejandra Zeballos,GPA,F,1970-03-06,56.8,47,M40-49,60,Argentina,-105,105,-120,105,,60,67.5,-72.5,67.5,,130,150,155,155,-160.5,327.5,SBD,Wraps,2
Rosalía Llancaleo,GPA,F,1968-08-19,65.5,49,Open,67.5,Chile,170,180,-190,180,,80,90,95,95,,140,,,140,,415,SBD,Wraps,1
Rosalía Llancaleo,GPA,F,1968-08-19,65.5,49,M40-49,67.5,Chile,170,180,-190,180,,80,90,95,95,,140,,,140,,415,SBD,Wraps,1
Erika Cruces,GPA,F,1974-08-11,73.4,43,Open,75,Chile,-180,200,220,220,,90,-100,100,100,,180,190,200,200,,520,SBD,Wraps,1
Erika Cruces,GPA,F,1974-08-11,73.4,43,M40-49,75,Chile,-180,200,220,220,,90,-100,100,100,,180,190,200,200,,520,SBD,Wraps,1
Daniela Quispe,GPA,F,1997-12-14,69.2,19,Open,75,Peru,95,115,117.5,117.5,,45,50,-52.5,50,,95,105,-115,105,,272.5,SBD,Wraps,3
Daniela Quispe,GPA,F,1997-12-14,69.2,19,Tn 18-19,75,Peru,95,115,117.5,117.5,,45,50,-52.5,50,,95,105,-115,105,,272.5,SBD,Wraps,1
Patri Fernandez,GPA,F,1971-02-11,78.85,46,Open,82.5,Peru,-100,100,-120,100,,70,75,-80,75,,100,110,,110,,285,SBD,Wraps,1
Patri Fernandez,GPA,F,1971-02-11,78.85,46,M40-49,82.5,Peru,-100,100,-120,100,,70,75,-80,75,,100,110,,110,,285,SBD,Wraps,1
Cristian Mateluna Nuñez,GPA,M,1987-07-14,53,30,Open,56,Chile,130,-135,-135,130,,80,90,-92.5,90,,160,-180,-180,160,,380,SBD,Wraps,1
Jesus Albornoz Escudero,GPA,M,2003-06-25,62.4,14,Open,67.5,Peru,30,50,65,65,,25,35,-45,35,,40,65,85,85,,185,SBD,Wraps,9
Jesus Albornoz Escudero,GPA,M,2003-06-25,62.4,14,Tn 13-15,67.5,Peru,30,50,65,65,,25,35,-45,35,,40,65,85,85,,185,SBD,Wraps,1
Ariel Villalba,GPA,M,1996-03-16,58.9,21,Open,60,Argentina,165,170,180,180,,100,105,,105,,215,225,-230,225,,510,SBD,Wraps,1
Ariel Villalba,GPA,M,1996-03-16,58.9,21,Jun,60,Argentina,165,170,180,180,,100,105,,105,,215,225,-230,225,,510,SBD,Wraps,1
Jose Chavez,GPA,M,1992-02-27,57.8,25,Open,60,Peru,120,140,-160,140,,80,85,-92.5,85,,140,150,160,160,,385,SBD,Wraps,4
Jose Toala Chillan,GPA,M,1980-09-15,57.8,37,Open,60,Ecuador,170,180,190,190,,100,107.5,110,110,,170,180,190,190,,490,SBD,Wraps,2
Jose Toala Chillan,GPA,M,1980-09-15,57.8,37,M+80,60,Ecuador,170,180,190,190,,100,107.5,110,110,,170,180,190,190,,490,SBD,Wraps,1
Guillermo Arias Mercado,GPA,M,1992-12-13,59.3,24,Open,60,Chile,165,175,182.5,182.5,,120,127.5,-130,127.5,,170,-177.5,-177.5,170,,480,SBD,Wraps,3
Wilson Aguilera Medina,GPA,M,2000-06-06,61.9,17,Open,67.5,Chile,130,-140,140,140,,90,-97.5,97.5,97.5,,150,165,-175,165,,402.5,SBD,Wraps,6
Wilson Aguilera Medina,GPA,M,2000-06-06,61.9,17,Tn 16-17,67.5,Chile,130,-140,140,140,,90,-97.5,97.5,97.5,,150,165,-175,165,,402.5,SBD,Wraps,1
Álvaro Mardones,GPA,M,1998-04-06,66.9,19,Open,67.5,Chile,190,200,207.5,207.5,,107.5,112.5,117.5,117.5,,220,232.5,-240.5,232.5,,557.5,SBD,Wraps,2
Álvaro Mardones,GPA,M,1998-04-06,66.9,19,Tn 18-19,67.5,Chile,190,200,207.5,207.5,,107.5,112.5,117.5,117.5,,220,232.5,-240.5,232.5,,557.5,SBD,Wraps,1
Emiliano Lopez,GPA,M,1996-03-18,66.6,21,Open,67.5,Argentina,200,220,-230.5,220,,105,117.5,122.5,122.5,,200,217.5,225,225,,567.5,SBD,Wraps,1
Emiliano Lopez,GPA,M,1996-03-18,66.6,21,Jun,67.5,Argentina,200,220,-230.5,220,,105,117.5,122.5,122.5,,200,217.5,225,225,,567.5,SBD,Wraps,1
Jacob Lagos,GPA,M,1992-11-28,67.1,24,Open,67.5,Chile,195,205,212.5,212.5,,102.5,107.5,-110,107.5,,210,220,-227.5,220,,540,SBD,Wraps,3
Sebastian Fragosa,GPA,M,1990-12-04,64.1,26,Open,67.5,Argentina,130,140,150,150,,75,80,85,85,,150,160,170,170,,405,SBD,Wraps,4
Enrique Tejada,GPA,M,1948-08-03,64.1,69,Open,67.5,Peru,70,90,100,100,,70,-80,-80,70,,120,140,145,145,,315,SBD,Wraps,8
Enrique Tejada,GPA,M,1948-08-03,64.1,69,M60-69,67.5,Peru,70,90,100,100,,70,-80,-80,70,,120,140,145,145,,315,SBD,Wraps,1
Carlos Cardenas,GPA,M,1999-03-01,74.2,18,Open,75,Mexico,180,190,-202.5,190,,90,95,-100,95,,180,190,-200,190,,475,SBD,Wraps,10
Carlos Cardenas,GPA,M,1999-03-01,74.2,18,M+80,75,Mexico,180,190,-202.5,190,,90,95,-100,95,,180,190,-200,190,,475,SBD,Wraps,1
Rodrigo Pucho Flores,GPA,M,1999-08-04,72.5,18,Open,75,Bolivia,150,160,175,175,,82.5,87.5,90,90,,150,165,-177.5,165,,430,SBD,Wraps,12
Rodrigo Pucho Flores,GPA,M,1999-08-04,72.5,18,Tn 18-19,75,Bolivia,150,160,175,175,,82.5,87.5,90,90,,150,165,-177.5,165,,430,SBD,Wraps,1
Patricio Poblete,GPA,M,1994-01-26,74,23,Open,75,Chile,180,192.5,200,200,,125,127.5,130,130,,200,207.5,-212.5,207.5,,537.5,SBD,Wraps,7
Patricio Poblete,GPA,M,1994-01-26,74,23,Jun,75,Chile,180,192.5,200,200,,125,127.5,130,130,,200,207.5,-212.5,207.5,,537.5,SBD,Wraps,3
Bruno Gonzales,GPA,M,1996-04-08,70,21,Open,75,Bolivia,140,150,160,160,,110,120,-122.5,120,,195,205,-210,205,,485,SBD,Wraps,9
Bruno Gonzales,GPA,M,1996-04-08,70,21,Jun,75,Bolivia,140,150,160,160,,110,120,-122.5,120,,195,205,-210,205,,485,SBD,Wraps,4
Esteban Ballesteros,GPA,M,1994-11-14,74.8,23,Open,75,Argentina,200,225,-240,225,,110,117.5,125,125,,210,220,235,235,,585,SBD,Wraps,4
Esteban Ballesteros,GPA,M,1994-11-14,74.8,23,Jun,75,Argentina,200,225,-240,225,,110,117.5,125,125,,210,220,235,235,,585,SBD,Wraps,2
Santiago Ruiz,GPA,M,1996-02-28,73,21,Open,75,Colombia,225,235,245,245,,150,155,-162.5,155,,225,235,-240,235,,635,SBD,Wraps,1
Santiago Ruiz,GPA,M,1996-02-28,73,21,Jun,75,Colombia,225,235,245,245,,150,155,-162.5,155,,225,235,-240,235,,635,SBD,Wraps,1
Darlyn Nima,GPA,M,1984-10-05,73.5,33,Open,75,Peru,195,-210,-210,195,,135,145,-152.5,145,,210,215,220,220,,560,SBD,Wraps,5
Marcos Salinas Castro,GPA,M,1992-05-23,74.1,25,Open,75,Bolivia,160,180,190,190,,110,120,130,130,,200,220,-225,220,,540,SBD,Wraps,6
Bryan Sagredo,GPA,M,1993-06-16,73.3,24,Open,75,Chile,180,192.5,205,205,,112.5,120,-125,120,,185,-197.5,200,200,,525,SBD,Wraps,8
Leandro Albornoz,GPA,M,1992-09-15,73.6,25,Open,75,Argentina,210,225,-235,225,,120,-130,130,130,,220,240,-245,240,,595,SBD,Wraps,3
Diego Carrasco,GPA,M,2000-06-08,79.4,17,Open,82.5,Chile,170,190,205,205,,-95,97.5,102.5,102.5,,205,225,227.5,227.5,,535,SBD,Wraps,11
Diego Carrasco,GPA,M,2000-06-08,79.4,17,Tn 16-17,82.5,Chile,170,190,205,205,,-95,97.5,102.5,102.5,,205,225,227.5,227.5,,535,SBD,Wraps,2
Federico Quiñonez,GPA,M,2000-04-10,79.4,17,Open,82.5,Argentina,205,-220,220,220,-230,105,112.5,-120,112.5,,200,212.5,220,220,,552.5,SBD,Wraps,9
Federico Quiñonez,GPA,M,2000-04-10,79.4,17,Tn 16-17,82.5,Argentina,205,-220,220,220,-230,105,112.5,-120,112.5,,200,212.5,220,220,,552.5,SBD,Wraps,1
Felipe Hernadez,GPA,M,1998-04-03,76.3,19,Open,82.5,Chile,160,175,185,185,,100,-105,105,105,,170,180,195,195,,485,SBD,Wraps,12
Felipe Hernadez,GPA,M,1998-04-03,76.3,19,Tn 18-19,82.5,Chile,160,175,185,185,,100,-105,105,105,,170,180,195,195,,485,SBD,Wraps,1
Damian Palazzo,GPA,M,2002-01-03,77.3,15,Open,82.5,Argentina,135,145,155,155,,77.5,82.5,-85,82.5,,155,165,-175,165,,402.5,SBD,Wraps,13
Damian Palazzo,GPA,M,2002-01-03,77.3,15,Tn 13-15,82.5,Argentina,135,145,155,155,,77.5,82.5,-85,82.5,,155,165,-175,165,,402.5,SBD,Wraps,1
Maximiliano Brito,GPA,M,1993-11-01,81.5,24,Open,82.5,Argentina,200,220,240,240,,110,120,127.5,127.5,,200,220,230,230,,597.5,SBD,Wraps,6
Roberto Guzman,GPA,M,1996-02-16,81.1,21,Open,82.5,Bolivia,220,-230,235,235,,-120,127.5,135,135,,225,235,247.5,247.5,,617.5,SBD,Wraps,5
Roberto Guzman,GPA,M,1996-02-16,81.1,21,Jun,82.5,Bolivia,220,-230,235,235,,-120,127.5,135,135,,225,235,247.5,247.5,,617.5,SBD,Wraps,2
Felipe Rodriguez,GPA,M,1997-09-18,81.5,20,Open,82.5,Colombia,175,185,200,200,,145,152.5,160,160,,200,220,-225,220,,580,SBD,Wraps,7
Felipe Rodriguez,GPA,M,1997-09-18,81.5,20,Jun,82.5,Colombia,175,185,200,200,,145,152.5,160,160,,200,220,-225,220,,580,SBD,Wraps,3
Jose Egües,GPA,M,1985-07-19,82.5,32,Open,82.5,Argentina,-290,290,-300,290,,130,140,-145,140,,-260,260,-277.5,260,,690,SBD,Wraps,2
Mauricio Rodriguez Cid,GPA,M,1988-07-06,79.9,29,Open,82.5,Chile,210,220,-232.5,220,,112.5,120,-125,120,,230,-250,,230,,570,SBD,Wraps,8
Jose Sepulveda,GPA,M,1985-04-24,79.2,32,Open,82.5,Colombia,240,245,255,255,,130,142.5,-150,142.5,,260,270,280,280,,677.5,SBD,Wraps,3
Mariano Stamatti,GPA,M,1977-08-08,80.6,40,Open,82.5,Argentina,-200,205,220,220,,105,115,-125,115,,210,215,-225,215,,550,SBD,Wraps,10
Mariano Stamatti,GPA,M,1977-08-08,80.6,40,M40-49,82.5,Argentina,-200,205,220,220,,105,115,-125,115,,210,215,-225,215,,550,SBD,Wraps,1
Pablo Puescas,GPA,M,1957-06-30,80.8,60,Open,82.5,Peru,80,100,-110,100,,90,-105,-110,90,,100,,,100,,290,SBD,Wraps,15
Pablo Puescas,GPA,M,1957-06-30,80.8,60,M60-69,82.5,Peru,80,100,-110,100,,90,-105,-110,90,,100,,,100,,290,SBD,Wraps,1
Juan Carlos Gonzalez,GPA,M,1947-05-29,76.2,70,Open,82.5,Argentina,62.5,82.5,102.5,102.5,,60,75,-86,75,,102.5,122.5,141,141,,318.5,SBD,Wraps,14
Juan Carlos Gonzalez,GPA,M,1947-05-29,76.2,70,M70-79,82.5,Argentina,62.5,82.5,102.5,102.5,,60,75,-86,75,,102.5,122.5,141,141,,318.5,SBD,Wraps,1
Alejo Pillips,GPA,M,1994-03-18,86.8,23,Open,90,Argentina,190,210,-220,210,,130,135,-140,135,,200,215,227.5,227.5,,572.5,SBD,Wraps,6
Alejo Pillips,GPA,M,1994-03-18,86.8,23,Jun,90,Argentina,190,210,-220,210,,130,135,-140,135,,200,215,227.5,227.5,,572.5,SBD,Wraps,2
Jose Salgado,GPA,M,1993-08-10,88.7,24,Open,90,Argentina,315,335,352.5,352.5,,160,172.5,182.5,182.5,,270,290,-305,290,,825,SBD,Wraps,1
Nicolas Pezo Cruz,GPA,M,1991-10-18,89.4,26,Open,90,Chile,260,270,,270,,170,180,185,185,,250,,,250,,705,SBD,Wraps,4
Jhon Wellington Vasques,GPA,M,1991-12-21,87.1,25,Open,90,Brazil,285,300,325,325,,160,175,-182.5,175,,240,-252.5,252.5,252.5,,752.5,SBD,Wraps,3
Jhon Wellington Vasques,GPA,M,1991-12-21,87.1,25,M+80,90,Brazil,285,300,325,325,,160,175,-182.5,175,,240,-252.5,252.5,252.5,,752.5,SBD,Wraps,1
Jose Oviedo,GPA,M,1993-09-23,86.6,24,Open,90,Paraguay,180,-195,-200,180,,140,-150,-150,140,,180,190,,190,,510,SBD,Wraps,8
Raul Araya,GPA,M,1976-08-26,87,41,Open,90,Argentina,170,190,200,200,,105,115,125,125,,180,-190,,180,,505,SBD,Wraps,9
Raul Araya,GPA,M,1976-08-26,87,41,M40-49,90,Argentina,170,190,200,200,,105,115,125,125,,180,-190,,180,,505,SBD,Wraps,1
Sergio Cousau,GPA,M,1964-03-16,88.65,53,Open,90,Argentina,160,170,-180,170,,-80,85,97.5,97.5,,180,200,-215,200,,467.5,SBD,Wraps,11
Sergio Cousau,GPA,M,1964-03-16,88.65,53,M50-59,90,Argentina,160,170,-180,170,,-80,85,97.5,97.5,,180,200,-215,200,,467.5,SBD,Wraps,3
Luis Zerpa,GPA,M,1965-12-17,88.1,51,Open,90,Peru,180,-200,200,200,,95,100,102.5,102.5,,165,180,192.5,192.5,,495,SBD,Wraps,10
Luis Zerpa,GPA,M,1965-12-17,88.1,51,M50-59,90,Peru,180,-200,200,200,,95,100,102.5,102.5,,165,180,192.5,192.5,,495,SBD,Wraps,2
Gregor Gritzman,GPA,M,1965-09-24,87.9,52,Open,90,Paraguay,110,115,120,120,,80,85,-90,85,,145,-150,,145,,350,SBD,Wraps,12
Gregor Gritzman,GPA,M,1965-09-24,87.9,52,M50-59,90,Paraguay,110,115,120,120,,80,85,-90,85,,145,-150,,145,,350,SBD,Wraps,4
Andrés Albornoz Tinoco,GPA,M,1966-08-16,87.4,51,Open,90,Peru,190,220,235,235,,105,110,112.5,112.5,,165,175,185,185,,532.5,SBD,Wraps,7
Andrés Albornoz Tinoco,GPA,M,1966-08-16,87.4,51,M50-59,90,Peru,190,220,235,235,,105,110,112.5,112.5,,165,175,185,185,,532.5,SBD,Wraps,1
Hector Alarcón Medina,GPA,M,1999-07-06,93.8,18,Open,100,Peru,150,170,190,190,,90,110,120,120,,150,175,200,200,,510,SBD,Wraps,8
Hector Alarcón Medina,GPA,M,1999-07-06,93.8,18,Tn 18-19,100,Peru,150,170,190,190,,90,110,120,120,,150,175,200,200,,510,SBD,Wraps,1
Franco Elizaran,GPA,M,1996-10-07,94.65,21,Open,100,Argentina,225,240,250,250,,122.5,132.5,-142.5,132.5,,220,235,-245,235,,617.5,SBD,Wraps,7
Franco Elizaran,GPA,M,1996-10-07,94.65,21,Jun,100,Argentina,225,240,250,250,,122.5,132.5,-142.5,132.5,,220,235,-245,235,,617.5,SBD,Wraps,2
Israel Hernandez Laguna,GPA,M,1996-05-07,98.3,21,Open,100,,272.5,-282.5,285,285,,150,155,157.5,157.5,,280,292.5,-300,292.5,,735,SBD,Wraps,4
Israel Hernandez Laguna,GPA,M,1996-05-07,98.3,21,Jun,100,,272.5,-282.5,285,285,,150,155,157.5,157.5,,280,292.5,-300,292.5,,735,SBD,Wraps,1
Yonathan Rondon,GPA,M,1989-08-04,98.1,28,Open,100,Argentina,290,310,325,325,,175,185,195,195,,290,305,-315,305,,825,SBD,Wraps,1
Eduardo Kramm,GPA,M,1981-09-16,98.25,36,Open,100,Brazil,280,305,310,310,,165,,,165,,275,,,275,,750,SBD,Wraps,3
Marcelo De la Quintana,GPA,M,1980-04-24,97.9,37,Open,100,Bolivia,220,250,-270,250,,130,,,130,,240,,,240,,620,SBD,Wraps,6
Marcelo De la Quintana,GPA,M,1980-04-24,97.9,37,Open,100,Bolivia,220,250,-270,250,,130,140,,140,,240,-260,-260,240,,630,SBD,Wraps,5
Eduardo Kramm,GPA,M,1981-09-16,98.25,36,Open,100,Brazil,280,305,325,325,,165,-180,-180,165,,275,-290,,275,,765,SBD,Wraps,2
José Fernández,GPA,M,1939-03-10,99.9,78,Open,100,Argentina,60,80,100,100,,-50,65,-80,65,,150,166,170,170,,335,SBD,Wraps,10
José Fernández,GPA,M,1939-03-10,99.9,78,M70-79,100,Argentina,60,80,100,100,,-50,65,-80,65,,150,166,170,170,,335,SBD,Wraps,1
Leonardo Tejada,GPA,M,1997-12-25,108.1,19,Open,110,Argentina,250,260,-275,260,,150,160,-175,160,,240,255,-260,255,,675,SBD,Wraps,8
Leonardo Tejada,GPA,M,1997-12-25,108.1,19,Tn 18-19,110,Argentina,250,260,-275,260,,150,160,-175,160,,240,255,-260,255,,675,SBD,Wraps,1
Andres Hugo,GPA,M,1979-12-29,108.2,37,Open,110,Argentina,325,-340,-340,325,,175,180,185,185,,295,305,315,315,,825,SBD,Wraps,2
Matías Iturra,GPA,M,1991-08-08,107.75,26,Open,110,Chile,290,-300,-300,290,,170,180,190,190,,280,300,,300,,780,SBD,Wraps,3
Giovani Santos,GPA,M,1990-09-15,106.4,27,Open,110,Brazil,270,300,-305,300,,155,172.5,180,180,,230,250,270,270,,750,SBD,Wraps,5
Giovani Santos,GPA,M,1990-09-15,106.4,27,M+80,110,Brazil,270,300,-305,300,,155,172.5,180,180,,230,250,270,270,,750,SBD,Wraps,1
Clodove Romero Cespedes,GPA,M,1989-11-23,108.3,,Open,110,Bolivia,265,-275,277.5,277.5,,170,180,182.5,182.5,,230,240,245,245,,705,SBD,Wraps,6
Mauro Spinardi,GPA,M,1980-02-28,109.2,37,Open,110,Argentina,320,335,350,350,,200,-205,,200,,300,-320,,300,,850,SBD,Wraps,1
Enrique Barrionuevo,GPA,M,1968-11-01,107.5,49,Open,110,Argentina,200,220,240,240,,150,170,,170,,180,220,,220,,630,SBD,Wraps,9
Enrique Barrionuevo,GPA,M,1968-11-01,107.5,49,M40-49,110,Argentina,200,220,240,240,,150,170,,170,,180,220,,220,,630,SBD,Wraps,1
Serafin Rocha,GPA,M,1948-04-27,109.5,69,Open,110,Brazil,80,100,120,120,,105,110,-115,110,,120,140,,140,,370,SBD,Wraps,10
Serafin Rocha,GPA,M,1948-04-27,109.5,69,M60-69,110,Brazil,80,100,120,120,,105,110,-115,110,,120,140,,140,,370,SBD,Wraps,1
Leandro Correa,GPA,M,1998-05-12,123.5,19,Open,125,Argentina,240,260,272.5,272.5,,120,130,-140,130,,230,250,,250,,652.5,SBD,Wraps,6
Leandro Correa,GPA,M,1998-05-12,123.5,19,Tn 18-19,125,Argentina,240,260,272.5,272.5,,120,130,-140,130,,230,250,,250,,652.5,SBD,Wraps,1
Alejandro Acuña,GPA,M,1985-03-13,119.8,32,Open,125,Chile,270,290,305,305,,150,165,-175,165,,280,-300,-300,280,,750,SBD,Wraps,2
Javier Melgar Henrich,GPA,M,1982-01-21,123.3,35,Open,125,Bolivia,312.5,330,345,345,,170,182.5,190,190,,250,267.5,272.5,272.5,,807.5,SBD,Wraps,1
Denis Franceschet,GPA,M,1984-02-23,114.7,33,Open,125,Brazil,-315,-315,,,,,,,,,,,,,,,SBD,Wraps,DQ
Denis Franceschet,GPA,M,1984-02-23,114.7,33,M+80,125,Brazil,-315,-315,,,,,,,,,,,,,,,SBD,Wraps,DQ
Abel Baltuano,GPA,M,1974-10-26,115.3,43,Open,125,Peru,220,240,255,255,,145,160,-167.5,160,,220,250,-270,250,,665,SBD,Wraps,5
Abel Baltuano,GPA,M,1974-10-26,115.3,43,M40-49,125,Peru,220,240,255,255,,145,160,-167.5,160,,220,250,-270,250,,665,SBD,Wraps,2
Ricardo Lucas,GPA,M,1971-04-16,120.9,46,Open,125,Brazil,250,-285,285,285,,170,190,200,200,,230,250,-270,250,,735,SBD,Wraps,3
Ricardo Lucas,GPA,M,1971-04-16,120.9,46,M40-49,125,Brazil,250,-285,285,285,,170,190,200,200,,230,250,-270,250,,735,SBD,Wraps,1
Sergio Mardones,GPA,M,1989-05-10,138.4,28,Open,140,Chile,350,380,-405,380,,205,222.5,230,230,,292.5,320,-350,320,,930,SBD,Wraps,1
Adrian Lopez,GPA,M,1986-08-07,127.3,31,Open,140,Argentina,255,270,282.5,282.5,,160,170,-177.5,170,,270,285,,285,,737.5,SBD,Wraps,2
Rodrigo Martinez Quiroga,GPA,M,1982-07-15,141.1,35,Open,140+,Argentina,330,350,-370,350,,200,210,-215,210,,300,320,335,335,,895,SBD,Wraps,2
Edgardo Leal,GPA,M,1973-04-19,160,44,Open,140+,Chile,320,340,,340,,-200,-200,200,200,,-260,260,-280,260,,800,SBD,Wraps,3
Edgardo Leal,GPA,M,1973-04-19,160,44,M40-49,140+,Chile,320,340,,340,,-200,-200,200,200,,-260,260,-280,260,,800,SBD,Wraps,2
Jaime Barrezueta,GPA,M,1969-09-25,146,48,Open,140+,Ecuador,340,-360.5,360.5,360.5,,210,220,230,230,240,300,325,-335,325,,915.5,SBD,Wraps,1
Jaime Barrezueta,GPA,M,1969-09-25,146,48,M40-49,140+,Ecuador,340,-360.5,360.5,360.5,,210,220,230,230,240,300,325,-335,325,,915.5,SBD,Wraps,1
Miguel Aguirre,IPO,M,1974-04-09,90,43,Open,90,Argentina,,,,,,100,130,145,145,,180,200,220,220,,365,BD,Raw,2
Miguel Aguirre,IPO,M,1974-04-09,90,43,M40-49,90,Argentina,,,,,,100,130,145,145,,180,200,220,220,,365,BD,Raw,1
Jose Aguirre,IPO,M,1970-11-17,99.1,47,Open,100,Argentina,,,,,,150,165,172.5,172.5,,250,260,-270.5,260,,432.5,BD,Raw,1
Jose Aguirre,IPO,M,1970-11-17,99.1,47,M40-49,100,Argentina,,,,,,150,165,172.5,172.5,,250,260,-270.5,260,,432.5,BD,Raw,1
Raul Olivieri,IPO,M,1983-11-30,101.5,33,Open,110,Argentina,,,,,,150,165,170,170,,250,-260,-260,250,,420,BD,Raw,2
Maryorie Flores,GPA,F,1995-12-01,55.4,21,Open,56,Chile,,,,,,60,62.5,-65,62.5,,135,140,-142.5,140,,202.5,BD,Raw,1
Maryorie Flores,GPA,F,1995-12-01,55.4,21,Jun,56,Chile,,,,,,60,62.5,-65,62.5,,135,140,-142.5,140,,202.5,BD,Raw,1
Flavia Portugall,GPA,F,2000-01-01,54.1,,Open,56,Brazil,,,,,,55,62.5,65,65,,80,90,92.5,92.5,,157.5,BD,Raw,2
Erika Cruces,GPA,F,1974-08-11,72.6,43,Open,75,Chile,,,,,,90,100,105,105,,180,-200,-200,180,,285,BD,Raw,1
Erika Cruces,GPA,F,1974-08-11,72.6,43,M40-49,75,Chile,,,,,,90,100,105,105,,180,-200,-200,180,,285,BD,Raw,1
Gregor Hocher,GPA,M,2002-07-11,51.5,15,Open,52,Brazil,,,,,,67.5,70,75,75,80,65,70,75,75,,150,BD,Raw,1
Gregor Hocher,GPA,M,2002-07-11,51.5,15,Tn 13-15,52,Brazil,,,,,,67.5,70,75,75,80,65,70,75,75,,150,BD,Raw,1
Jean Rodrigez Cid,GPA,M,1992-07-06,59.6,25,Open,60,Chile,,,,,,95,100,-102.5,100,,160,170,-177.5,170,,270,BD,Raw,1
Fellipe Portugal,GPA,M,1983-08-24,66.9,34,Open,67.5,Brazil,,,,,,95,107.5,112.5,112.5,,125,140,150,150,,262.5,BD,Raw,2
Sebastian Borja,GPA,M,1994-12-21,67.3,22,Open,67.5,Bolivia,,,,,,112.5,122.5,-130,122.5,,-190,190,205,205,,327.5,BD,Raw,1
Sebastian Borja,GPA,M,1994-12-21,67.3,22,jun,67.5,Bolivia,,,,,,112.5,122.5,-130,122.5,,-190,190,205,205,,327.5,BD,Raw,1
Patricio Poblete,GPA,M,1994-01-26,74.8,23,Open,75,Chile,,,,,,122.5,130,137.5,137.5,,190,202.5,-212.5,202.5,,340,BD,Raw,2
Patricio Poblete,GPA,M,1994-01-26,74.8,23,Jun,75,Chile,,,,,,122.5,130,137.5,137.5,,190,202.5,-212.5,202.5,,340,BD,Raw,1
José Rivas #1,GPA,M,1988-06-11,74.3,29,Open,75,Chile,,,,,,125,130,-140,130,,200,205,210,210,,340,BD,Raw,1
Clotario Portugal,GPA,M,1953-02-11,74.8,64,Open,75,Brazil,,,,,,95,100,107.5,107.5,,125,130,,130,,237.5,BD,Raw,3
Clotario Portugal,GPA,M,1953-02-11,74.8,64,M60-69,75,Brazil,,,,,,95,100,107.5,107.5,,125,130,,130,,237.5,BD,Raw,1
Diego Alvarado,GPA,M,1992-08-15,81.8,25,Open,82.5,Chile,,,,,,117.5,127.5,132.5,132.5,,-225,225,-237.5,225,,357.5,BD,Raw,2
Marcos Villagra,GPA,M,1985-10-12,77.6,32,Open,82.5,Argentina,,,,,,127.5,135,-140,135,,220,230,-235,230,,365,BD,Raw,1
Elias Urrutia,GPA,M,1999-03-15,84.5,18,Open,90,Chile,,,,,,110,-115,-115,110,,-205,-210,210,210,,320,BD,Raw,4
Elias Urrutia,GPA,M,1999-03-15,84.5,18,Tn 18-19,90,Chile,,,,,,110,-115,-115,110,,-205,-210,210,210,,320,BD,Raw,1
Julio Travaglia,GPA,M,1980-09-21,88.3,37,Open,90,Argentina,,,,,,145,155,162.5,162.5,,225,240,-250,240,,402.5,BD,Raw,1
Eduardo Grumann,GPA,M,1967-03-28,88.5,50,Open,90,Brazil,,,,,,130,140,-145,140,,192.5,-210,210,210,,350,BD,Raw,3
Eduardo Grumann,GPA,M,1967-03-28,88.5,50,M50-59,90,Brazil,,,,,,130,140,-145,140,,192.5,-210,210,210,,350,BD,Raw,1
Ernesto Giovanini,GPA,M,1991-10-27,90.5,26,Open,100,Argentina,,,,,,100,112.5,120,120,,200,-215,215,215,,335,BD,Raw,3
Mariano Segade,GPA,M,1976-08-05,92,41,Open,100,Argentina,,,,,,125,132.5,-135,132.5,,210,-212.5,222.5,222.5,,355,BD,Raw,2
Mariano Segade,GPA,M,1976-08-05,92,41,M40-49,100,Argentina,,,,,,125,132.5,-135,132.5,,210,-212.5,222.5,222.5,,355,BD,Raw,2
Luiz Felipe Nogueiro,GPA,M,1984-12-19,108,32,Open,110,Brazil,,,,,,-110,115,-122.5,115,,210,220,-225,220,,335,BD,Raw,5
Luiz Felipe Nogueiro,GPA,M,1984-12-19,108,32,M+80,110,Brazil,,,,,,-110,115,-122.5,115,,210,220,-225,220,,335,BD,Raw,1
Fabian Lobos,GPA,M,1985-09-22,107.7,32,Open,110,Argentina,,,,,,125,135,140,140,,180,195,-207.5,195,,335,BD,Raw,4
Matías Iturra,GPA,M,1991-08-08,109.4,26,Open,110,Chile,,,,,,180,192.5,,192.5,,280,-300,,280,,472.5,BD,Raw,1
Marcelo Schneider,GPA,M,1967-02-25,106.7,50,Open,110,Brazil,,,,,,170,-180,-180,170,,230,240,245,245,,415,BD,Raw,3
Marcelo Schneider,GPA,M,1967-02-25,106.7,50,M50-59,110,Brazil,,,,,,170,-180,-180,170,,230,240,245,245,,415,BD,Raw,1
Facundo Soria,GPA,M,1991-03-09,120,26,Open,125,Argentina,,,,,,205,215,223.5,223.5,,285,-302.5,-302.5,285,,508.5,BD,Raw,1
Alexander Sharman,GPA,M,1977-06-21,121,40,Open,125,Paraguay,,,,,,-165,165,-180,165,,240,250,260,260,,425,BD,Raw,2
Alexander Sharman,GPA,M,1977-06-21,121,40,M40-49,125,Paraguay,,,,,,-165,165,-180,165,,240,250,260,260,,425,BD,Raw,1
Aldo Cornejo,GPA,M,1971-01-05,140.6,46,Open,140+,Chile,,,,,,160,170,-180,170,,291,305,-310,305,,475,BD,Raw,1
Aldo Cornejo,GPA,M,1971-01-05,140.6,46,M40-49,140+,Chile,,,,,,160,170,-180,170,,291,305,-310,305,,475,BD,Raw,1
Alejandro Luna,GPA,M,1982-01-27,134.3,35,Open,140,Argentina,,,,,,140,150,-160,150,,190,210,-225,210,,360,BD,Raw,2
Cesar Casarotto,GPA,M,1983-02-24,129,34,Open,140,Brazil,,,,,,180,-200,-200,180,,300,-310,310,310,,490,BD,Raw,1
Clotario Portugal,IPO,M,1953-02-11,71,64,Open,75,Brazil,,,,,,138,-140,-145,138,,,,,,,138,B,Raw,2
Clotario Portugal,IPO,M,1953-02-11,71,64,M60-69,75,Brazil,,,,,,138,-140,-145,138,,,,,,,138,B,Raw,1
Ruben Reynoso,IPO,M,1997-12-06,76.4,19,Open,82.5,Argentina,,,,,,130,-145,-145,130,,,,,,,130,B,Raw,4
Ruben Reynoso,IPO,M,1997-12-06,76.4,19,Tn 18-19,82.5,Argentina,,,,,,130,-145,-145,130,,,,,,,130,B,Raw,1
Mario Garcia,IPO,M,1992-10-20,88,25,Open,90,Argentina,,,,,,170,-190,-200,170,,,,,,,170,B,Raw,5
Carlos Cabral Barreto,IPO,M,1982-03-29,88.1,35,Open,90,Paraguay,,,,,,200,-215,-215,200,,,,,,,200,B,Raw,1
Daniel Aramburu,IPO,M,1978-02-27,92,39,Open,100,Argentina,,,,,,175,195,207.5,207.5,,,,,,,207.5,B,Raw,1
Enzo Castro,IPO,M,1984-09-02,108,33,Open,110,Chile,,,,,,-200,-205,205,205,,,,,,,205,B,Raw,1
Alexey Fedyayev,IPO,M,1976-07-02,123,41,Open,125,Kazakhstan,,,,,,260,-280,-280,260,,,,,,,260,B,Raw,1
Alexey Fedyayev,IPO,M,1976-07-02,123,41,M40-49,125,Kazakhstan,,,,,,260,-280,-280,260,,,,,,,260,B,Raw,1
Gianella Gomez,GPA,F,2004-06-30,61.5,13,Open,67.5,Argentina,,,,,,25,30,-35,30,,,,,,,30,B,Raw,2
Gianella Gomez,GPA,F,2004-06-30,61.5,13,Tn 13-15,67.5,Argentina,,,,,,25,30,-35,30,,,,,,,30,B,Raw,1
Maria Paz Batalla,GPA,F,1984-05-23,47.9,33,Open,48,Chile,,,,,,52.5,-57.5,-60,52.5,,,,,,,52.5,B,Raw,1
Lourdes Cacya,GPA,F,1972-02-11,69.3,45,Open,75,Peru,,,,,,50,57.5,62.5,62.5,,,,,,,62.5,B,Raw,1
Lourdes Cacya,GPA,F,1972-02-11,69.3,45,M40-49,75,Peru,,,,,,50,57.5,62.5,62.5,,,,,,,62.5,B,Raw,1
Rosalía Llancaleo,GPA,F,1968-08-19,66.5,49,Open,67.5,Chile,,,,,,80,90,97.5,97.5,,,,,,,97.5,B,Raw,1
Rosalía Llancaleo,GPA,F,1968-08-19,66.5,49,M40-49,67.5,Chile,,,,,,80,90,97.5,97.5,,,,,,,97.5,B,Raw,1
Gregor Hocher,GPA,M,2002-07-11,51.5,15,Open,52,Brazil,,,,,,67.5,70,75,75,-80,,,,,,75,B,Raw,1
Gregor Hocher,GPA,M,2002-07-11,51.5,15,Tn 13-15,52,Brazil,,,,,,67.5,70,75,75,-80,,,,,,75,B,Raw,1
Cesar Sotomayor,GPA,M,1970-10-09,64,47,Open,67.5,Peru,,,,,,70,80,-85,80,,,,,,,80,B,Raw,5
Cesar Sotomayor,GPA,M,1970-10-09,64,47,M40-49,67.5,Peru,,,,,,70,80,-85,80,,,,,,,80,B,Raw,2
Matias Flores,GPA,M,1996-08-27,62,21,Open,67.5,Argentina,,,,,,85,87.5,-92.5,87.5,,,,,,,87.5,B,Raw,4
Matias Flores,GPA,M,1996-08-27,62,21,Jun,67.5,Argentina,,,,,,85,87.5,-92.5,87.5,,,,,,,87.5,B,Raw,1
Freddy Pozo,GPA,M,1982-10-07,65.9,35,Open,67.5,Peru,,,,,,75,90,-100,90,,,,,,,90,B,Raw,3
Gonzalo Nuñez,GPA,M,1976-11-07,65.4,41,Open,67.5,Peru,,,,,,90,105,-110,105,,,,,,,105,B,Raw,2
Gonzalo Nuñez,GPA,M,1976-11-07,65.4,41,M40-49,67.5,Peru,,,,,,90,105,-110,105,,,,,,,105,B,Raw,1
Oscar Chica Chica,GPA,M,1964-02-28,65.8,53,Open,67.5,Colombia,,,,,,100,110,-112.5,110,,,,,,,110,B,Raw,1
Oscar Chica Chica,GPA,M,1964-02-28,65.8,53,M50-59,67.5,Colombia,,,,,,100,110,-112.5,110,,,,,,,110,B,Raw,1
Martin Caminoa,GPA,M,1995-02-05,73.7,22,Open,75,Argentina,,,,,,90,-95,95,95,,,,,,,95,B,Raw,3
Martin Caminoa,GPA,M,1995-02-05,73.7,22,Jun,75,Argentina,,,,,,90,-95,95,95,,,,,,,95,B,Raw,1
Darlyn Nima,GPA,M,1984-10-05,74.5,33,Open,75,Peru,,,,,,140,145,147.5,147.5,,,,,,,147.5,B,Raw,1
Osvaldo Dunda,GPA,M,1937-07-15,71,80,Open,75,Argentina,,,,,,30,-35,35,35,,,,,,,35,B,Raw,4
Osvaldo Dunda,GPA,M,1937-07-15,71,80,M+80,75,Argentina,,,,,,30,-35,35,35,,,,,,,35,B,Raw,1
Esteban Peña,GPA,M,1989-11-07,80.25,28,Open,82.5,Chile,,,,,,140,-150,150,150,,,,,,,150,B,Raw,3
Roberto Cavani Rosas,GPA,M,1965-09-05,81.4,52,Open,82.5,Argentina,,,,,,152.5,155,-160,155,,,,,,,155,B,Raw,2
Roberto Cavani Rosas,GPA,M,1965-09-05,81.4,52,M50-59,82.5,Argentina,,,,,,152.5,155,-160,155,,,,,,,155,B,Raw,1
Maximiliano Odino,GPA,M,1977-01-13,80.6,40,Open,82.5,Argentina,,,,,,140,152.5,170,170,,,,,,,170,B,Raw,1
Maximiliano Odino,GPA,M,1977-01-13,80.6,40,M40-49,82.5,Argentina,,,,,,140,152.5,170,170,,,,,,,170,B,Raw,1
Carlos Porta,GPA,M,1933-02-03,86.7,84,Open,90,Argentina,,,,,,75,80,82.5,82.5,,,,,,,82.5,B,Raw,8
Carlos Porta,GPA,M,1933-02-03,86.7,84,M+80,90,Argentina,,,,,,75,80,82.5,82.5,,,,,,,82.5,B,Raw,1
Nicolas Pezo Cruz,GPA,M,1991-10-18,88.1,26,Open,90,Chile,,,,,,180,-187,,180,,,,,,,180,B,Raw,3
Marcelo Carrizo,GPA,M,1978-06-05,89.9,39,Open,90,Argentina,,,,,,-155,155,160,160,,,,,,,160,B,Raw,6
Carlos Cabral Barreto,GPA,M,1982-03-29,89.5,35,Open,90,Paraguay,,,,,,175,185,190,190,,,,,,,190,B,Raw,2
Sergio Tomassoni,GPA,M,1969-12-27,87.3,47,Open,90,Argentina,,,,,,150,165,172.5,172.5,,,,,,,172.5,B,Raw,4
Sergio Tomassoni,GPA,M,1969-12-27,87.3,47,M40-49,90,Argentina,,,,,,150,165,172.5,172.5,,,,,,,172.5,B,Raw,1
Miguel Garcia,GPA,M,1976-07-11,101.9,41,Open,110,Peru,,,,,,130,-150,-150,130,,,,,,,130,B,Raw,5
Miguel Garcia,GPA,M,1976-07-11,101.9,41,M40-49,110,Peru,,,,,,130,-150,-150,130,,,,,,,130,B,Raw,1
Lucas Basualdo,GPA,M,1981-02-20,90,36,Open,90,Argentina,,,,,,100,110,120,120,123.5,,,,,,120,B,Raw,7
Ariel Massera,GPA,M,1989-04-28,98.8,28,Open,100,Argentina,,,,,,155,165,175,175,,,,,,,175,B,Raw,2
Alfredo Pappalardo,GPA,M,1949-02-22,99.3,68,Open,100,Argentina,,,,,,75,-90,-100,75,,,,,,,75,B,Raw,3
Alfredo Pappalardo,GPA,M,1949-02-22,99.3,68,M60-69,100,Argentina,,,,,,75,-90,-100,75,,,,,,,75,B,Raw,1
Matías Iturra,GPA,M,1991-08-08,109.4,26,Open,110,Chile,,,,,,170,180,192.5,192.5,,,,,,,192.5,B,Raw,3
Pablo Aurelio,GPA,M,1978-12-22,104.9,38,Open,110,Argentina,,,,,,175,182.5,192.5,192.5,,,,,,,192.5,B,Raw,2
Marcelo Schneider,GPA,M,1967-02-25,106.7,50,Open,110,Brazil,,,,,,170,-180,-180,170,,,,,,,170,B,Raw,4
Marcelo Schneider,GPA,M,1967-02-25,106.7,50,M50-59,110,Brazil,,,,,,170,-180,-180,170,,,,,,,170,B,Raw,1
Nicolas Pato,GPA,M,1984-04-16,110.4,33,Open,125,Argentina,,,,,,180,210,-220,210,,,,,,,210,B,Raw,2
Nestor Gonzalez,GPA,M,1970-03-06,123,47,Open,125,Argentina,,,,,,150,165,-172.5,165,,,,,,,165,B,Raw,3
Nestor Gonzalez,GPA,M,1970-03-06,123,47,M40-49,125,Argentina,,,,,,150,165,-172.5,165,,,,,,,165,B,Raw,2
Gabriel Lopez,GPA,M,1977-03-06,126,40,Open,140,Argentina,,,,,,155,170,180,180,,,,,,,180,B,Raw,1
Gabriel Lopez,GPA,M,1977-03-06,126,40,M40-49,140,Argentina,,,,,,155,170,180,180,,,,,,,180,B,Raw,1
Edgardo Leal,GPA,M,1973-04-19,160,44,Open,140+,Chile,,,,,,200,-210,,200,,,,,,,200,B,Raw,1
Edgardo Leal,GPA,M,1973-04-19,160,44,M40-49,140+,Chile,,,,,,200,-210,,200,,,,,,,200,B,Raw,1
Jose Soto,IPO,M,1988-02-14,80.3,29,Open,82.5,Ecuador,,,,,,,,,,,160,180,-220,180,,180,D,Raw,3
Miguel Aguirre,IPO,M,1974-04-09,90,43,Open,90,Argentina,,,,,,,,,,,180,200,220,220,,220,D,Raw,1
Miguel Aguirre,IPO,M,1974-04-09,90,43,M40-49,90,Argentina,,,,,,,,,,,180,200,220,220,,220,D,Raw,1
Jose Aguirre,IPO,M,1970-11-17,99.1,47,Open,100,Argentina,,,,,,,,,,,250,260,-270.5,260,,260,D,Raw,2
Jose Aguirre,IPO,M,1970-11-17,99.1,47,M40-49,100,Argentina,,,,,,,,,,,250,260,-270.5,260,,260,D,Raw,1
Raul Olivieri,IPO,M,1983-11-30,101.5,33,Open,110,Argentina,,,,,,,,,,,250,-260,-260,250,,250,D,Raw,3
Lissa Gauthier,GPA,F,1993-10-06,56,24,Open,56,Chile,,,,,,,,,,,130,-145,-145,130,,130,D,Raw,1
Yasnna Riffo,GPA,F,1973-11-01,59.9,44,Open,60,Chile,,,,,,,,,,,140,151,160,160,,160,D,Raw,1
Yasnna Riffo,GPA,F,1973-11-01,59.9,44,M40-49,60,Chile,,,,,,,,,,,140,151,160,160,,160,D,Raw,1
Gregor Hocher,GPA,M,2002-07-11,51.5,15,Open,52,Brazil,,,,,,,,,,,65,70,75,75,,75,D,Raw,1
Gregor Hocher,GPA,M,2002-07-11,51.5,15,Tn 13-15,52,Brazil,,,,,,,,,,,65,70,75,75,,75,D,Raw,1
João Victor Bisollo,GPA,M,2000-01-03,66.4,17,Open,67.5,Brazil,,,,,,,,,,,150,170,-182.5,170,,170,D,Raw,1
João Victor Bisollo,GPA,M,2000-01-03,66.4,17,Tn 16-17,67.5,Brazil,,,,,,,,,,,150,170,-182.5,170,,170,D,Raw,1
Javier Yanibelli,GPA,M,1985-11-10,75,32,Open,75,Argentina,,,,,,,,,,,230,242.5,250,250,,250,D,Raw,1
Roseneide Barbosa,GPA,F,1972-02-15,73.9,45,Open,75,Brazil,,,,,,,,,,,110,-120,-120,110,,110,D,Raw,1
Roseneide Barbosa,GPA,F,1972-02-15,73.9,45,M40-49,75,Brazil,,,,,,,,,,,110,-120,-120,110,,110,D,Raw,1
Aldo Ballesteros,GPA,M,1991-10-30,80.95,26,Open,82.5,Argentina,,,,,,,,,,,260,270,-280,270,,270,D,Raw,1
Ricardo Cardozo,GPA,M,1994-08-10,93.1,23,Open,100,Paraguay,,,,,,,,,,,230,240,-250,240,,240,D,Raw,3
Ricardo Cardozo,GPA,M,1994-08-10,93.1,23,Jun,100,Paraguay,,,,,,,,,,,230,240,-250,240,,240,D,Raw,1
Luis Zerpa,GPA,M,1965-12-17,89.1,51,Open,90,Peru,,,,,,,,,,,175,187.5,195,195,,195,D,Raw,2
Luis Zerpa,GPA,M,1965-12-17,89.1,51,M50-59,90,Peru,,,,,,,,,,,175,187.5,195,195,,195,D,Raw,1
Júlio Chavez,GPA,M,1952-08-19,81.8,65,Open,82.5,Argentina,,,,,,,,,,,170,191,-200,191,,191,D,Raw,2
Júlio Chavez,GPA,M,1952-08-19,81.8,65,M60-69,82.5,Argentina,,,,,,,,,,,170,191,-200,191,,191,D,Raw,1
Emiliano Barrionuevo,GPA,M,1991-12-24,92.1,25,Open,100,Argentina,,,,,,,,,,,280,302.5,,302.5,,302.5,D,Raw,1
Cristobal Serrano,GPA,M,1991-09-27,107.9,26,Open,110,Chile,,,,,,,,,,,230,260,280,280,,280,D,Raw,2
Juan Manavella,GPA,M,1977-11-15,108,40,Open,110,Argentina,,,,,,,,,,,285,300,-315,300,,300,D,Raw,1
Juan Manavella,GPA,M,1977-11-15,108,40,M40-49,110,Argentina,,,,,,,,,,,285,300,-315,300,,300,D,Raw,1
Marcelo Schneider,GPA,M,1967-02-25,106.7,50,Open,110,Brazil,,,,,,,,,,,230,240,245,245,,245,D,Raw,5
Marcelo Schneider,GPA,M,1967-02-25,106.7,50,M50-59,110,Brazil,,,,,,,,,,,230,240,245,245,,245,D,Raw,1
Rafael Crestani,GPA,M,1980-02-27,117,37,Open,125,Brazil,,,,,,,,,,,280,300,317.5,317.5,,317.5,D,Raw,1
Alexander Sharman,GPA,M,1977-06-21,121,40,Open,125,Paraguay,,,,,,,,,,,240,250,260,260,,260,D,Raw,2
Alexander Sharman,GPA,M,1977-06-21,121,40,M40-49,125,Paraguay,,,,,,,,,,,240,250,260,260,,260,D,Raw,1
Eduardo Spada,GPA,M,1999-07-19,103,18,Open,110,Brazil,,,,,,,,,,,200,230,250,250,,250,D,Raw,4
Eduardo Spada,GPA,M,1999-07-19,103,18,Tn 18-19,110,Brazil,,,,,,,,,,,200,230,250,250,,250,D,Raw,1
